Susceptible;Exposed;Infected;Recovered
19980;0;20;0
19963;6;28;3
19942;13;37;8
19913;12;61;14
19853;24;94;29
19768;24;159;49
19629;27;263;81
19413;47;404;136
19073;52;669;206
18478;62;1130;330
17544;76;1827;553
16143;84;2890;883
14304;85;4162;1449
11991;85;5700;2224
9569;69;7101;3261
7259;65;8177;4499
5284;50;8767;5899
3857;42;8796;7305
2800;40;8556;8604
2069;32;8060;9839
1539;30;7448;10983
1231;29;6735;12005
1027;21;6041;12911
886;23;5420;13671
763;28;4816;14393
726;29;4263;14982
659;29;3782;15530
600;27;3339;16034
602;28;2953;16417
616;27;2590;16767
626;26;2329;17019
630;33;2066;17271
649;25;1833;17493
677;21;1620;17682
704;23;1453;17820
737;19;1280;17964
769;18;1149;18064
803;18;1001;18178
840;21;867;18272
894;17;766;18323
935;18;652;18395
979;16;580;18425
1023;16;526;18435
1065;19;469;18447
1111;18;429;18442
1176;15;370;18439
1214;11;345;18430
1274;10;310;18406
1339;10;275;18376
1392;9;243;18356
1442;10;209;18339
1504;7;186;18303
1569;8;159;18264
1627;5;141;18227
1686;4;136;18174
1746;3;121;18130
1781;1;116;18102
1828;2;105;18065
1874;0;106;18020
1935;0;94;17971
1988;1;83;17928
2034;1;70;17895
2094;1;63;17842
2137;2;60;17801
2195;1;52;17752
2267;1;42;17690
2320;1;37;17642
2388;1;32;17579
2444;0;32;17524
2504;0;30;17466
2559;0;27;17414
2617;0;25;17358
2660;0;22;17318
2708;0;23;17269
2763;0;27;17210
2823;1;27;17149
2873;1;28;17098
2918;0;28;17054
2971;0;27;17002
3018;0;28;16954
3055;0;28;16917
3113;0;26;16861
3154;1;27;16818
3215;1;21;16763
3261;2;22;16715
3301;2;19;16678
3354;2;17;16627
3396;1;17;16586
3436;1;15;16548
3483;1;16;16500
3520;0;17;16463
3577;0;18;16405
3625;0;20;16355
3671;0;16;16313
3713;0;14;16273
3744;0;13;16243
3785;0;14;16201
3830;0;13;16157
3866;0;14;16120
3904;0;13;16083
3943;0;15;16042
3984;0;15;16001
4030;0;18;15952
4069;0;16;15915
4105;0;15;15880
4136;0;11;15853
4183;0;13;15804
4218;0;13;15769
4262;0;11;15727
4301;0;9;15690
4337;0;9;15654
4376;0;7;15617
4425;0;9;15566
4465;0;9;15526
4504;0;14;15482
4545;0;13;15442
4588;0;15;15397
4634;0;13;15353
4684;0;14;15302
4725;0;14;15261
4761;0;12;15227
4809;0;7;15184
4838;0;7;15155
4886;0;8;15106
4930;0;8;15062
4981;0;9;15010
5018;0;13;14969
5065;0;14;14921
5107;0;13;14880
5147;1;15;14837
5188;1;15;14796
5227;1;16;14756
5267;1;18;14714
5311;0;17;14672
5352;0;18;14630
5393;0;19;14588
5433;0;15;14552
5470;0;14;14516
5506;0;15;14479
5545;0;16;14439
5583;0;14;14403
5625;0;18;14357
5658;0;20;14322
5694;2;18;14286
5737;1;26;14236
5771;1;22;14206
5808;1;18;14173
5854;0;23;14123
5885;0;29;14086
5923;0;34;14043
5948;0;39;14013
5974;0;51;13975
6006;1;56;13937
6038;0;69;13893
6048;2;77;13873
6072;1;75;13852
6092;1;75;13832
6123;2;81;13794
6150;2;87;13761
6178;2;100;13720
6200;1;111;13688
6221;2;109;13668
6253;2;101;13644
6272;2;106;13620
6284;1;126;13589
6299;2;122;13577
6317;2;116;13565
6318;3;133;13546
6340;3;137;13520
6344;4;158;13494
6336;3;177;13484
6316;1;207;13476
6309;0;214;13477
6317;1;219;13463
6307;1;238;13454
6287;0;251;13462
6260;0;270;13470
6228;0;289;13483
6197;0;326;13477
6148;1;348;13503
6124;2;363;13511
6096;2;384;13518
6038;4;410;13548
6006;2;409;13583
5934;4;448;13614
5856;6;497;13641
5793;3;532;13672
5718;8;571;13703
5636;5;601;13758
5554;5;636;13805
5478;6;656;13860
5365;6;699;13930
5271;5;724;14000
5175;5;752;14068
5087;6;776;14131
4991;7;800;14202
4894;10;842;14254
4795;9;864;14332
4727;8;854;14411
4659;8;846;14487
4582;9;851;14558
4482;7;875;14636
4388;8;867;14737
4292;10;879;14819
4203;11;897;14889
4139;13;886;14962
4054;13;888;15045
3990;16;874;15120
3925;17;863;15195
3855;19;880;15246
3790;21;888;15301
3728;19;874;15379
3685;13;857;15445
3642;15;840;15503
3599;15;831;15555
3539;14;814;15633
3495;13;806;15686
3436;14;796;15754
3435;15;757;15793
3396;17;746;15841
3371;14;732;15883
3364;11;703;15922
3349;10;666;15975
3339;11;663;15987
3330;8;656;16006
3318;12;647;16023
3312;12;622;16054
3320;19;588;16073
3330;18;569;16083
3320;17;578;16085
3336;13;559;16092
3348;11;551;16090
3362;9;549;16080
3386;13;511;16090
3432;13;487;16068
3447;13;476;16064
3458;11;458;16073
3495;10;440;16055
3526;10;423;16041
3571;9;397;16023
3610;8;375;16007
3653;7;361;15979
3682;5;347;15966
3705;3;337;15955
3750;4;323;15923
3789;6;307;15898
3837;7;291;15865
3887;3;278;15832
3928;4;268;15800
3989;5;260;15746
4032;7;251;15710
4067;8;250;15675
4105;4;252;15639
4136;5;246;15613
4170;4;244;15582
4214;4;238;15544
4269;4;240;15487
4314;6;224;15456
4360;8;217;15415
4418;6;226;15350
4468;5;223;15304
4523;6;225;15246
4549;6;252;15193
4578;5;249;15168
4624;5;239;15132
4678;6;235;15081
4707;7;225;15061
4723;5;252;15020
4750;6;247;14997
4768;5;265;14962
4800;5;269;14926
4819;6;287;14888
4838;4;297;14861
4878;5;284;14833
4915;7;285;14793
4943;7;288;14762
4968;4;288;14740
4998;5;305;14692
5017;6;316;14661
5042;6;309;14643
5056;7;325;14612
5073;5;334;14588
5091;8;351;14550
5123;7;359;14511
5111;6;398;14485
5131;6;398;14465
5128;5;430;14437
5120;5;446;14429
5124;6;463;14407
5111;6;494;14389
5085;6;503;14406
5060;5;545;14390
5055;7;556;14382
5036;7;564;14393
5032;10;560;14398
5012;9;588;14391
4982;9;610;14399
4953;9;621;14417
4899;6;653;14442
4849;9;670;14472
4805;13;679;14503
4766;11;701;14522
4721;11;722;14546
4671;10;749;14570
4600;9;783;14608
4563;12;804;14621
4526;12;806;14656
4492;13;785;14710
4436;12;813;14739
4412;13;784;14791
4397;8;765;14830
4350;9;766;14875
4329;10;728;14933
4323;11;715;14951
4294;11;725;14970
4268;12;723;14997
4251;10;708;15031
4240;13;669;15078
4224;14;673;15089
4202;11;670;15117
4193;12;678;15117
4182;14;680;15124
4145;11;699;15145
4121;11;719;15149
4123;15;697;15165
4155;14;671;15160
4159;12;679;15150
4154;8;685;15153
4159;8;683;15150
4140;11;672;15177
4165;12;636;15187
4163;12;643;15182
4173;14;650;15163
4158;13;657;15172
4164;15;662;15159
4190;15;643;15152
4178;19;643;15160
4161;22;656;15161
4142;24;657;15177
4114;24;674;15188
4117;21;655;15207
4106;18;675;15201
4104;15;665;15216
4099;12;687;15202
4098;11;681;15210
4091;17;698;15194
4085;13;694;15208
4099;16;677;15208
4081;20;689;15210
4039;19;703;15239
4028;19;707;15246
4023;18;691;15268
4000;17;693;15290
4014;17;685;15284
4020;14;688;15278
4021;17;685;15277
4027;16;689;15268
4001;16;696;15287
4008;13;686;15293
4000;13;697;15290
3978;16;683;15323
3967;16;685;15332
3967;18;675;15340
3992;21;638;15349
3997;18;621;15364
4018;25;605;15352
4038;19;597;15346
4037;23;592;15348
4040;21;580;15359
4059;15;588;15338
4043;14;575;15368
4051;16;572;15361
4053;18;589;15340
4044;19;598;15339
4032;16;598;15354
4054;18;581;15347
4063;16;580;15341
4101;18;548;15333
4117;14;557;15312
4121;12;570;15297
4121;9;587;15283
4133;8;581;15278
4145;9;551;15295
4156;8;546;15290
4171;6;549;15274
4164;9;544;15283
4177;14;560;15249
4180;14;570;15236
4188;13;571;15228
4214;14;554;15218
4203;12;594;15191
4210;16;572;15202
4221;15;583;15181
4246;15;565;15174
4266;16;577;15141
4277;12;576;15135
4259;14;582;15145
4261;15;595;15129
4261;10;596;15133
4255;11;593;15141
4247;14;593;15146
4213;12;604;15171
4207;14;598;15181
4236;12;574;15178
4244;16;580;15160
4255;16;574;15155
4258;13;567;15162
4278;13;557;15152
4274;12;573;15141
4291;12;563;15134
4307;11;564;15118
4318;11;562;15109
4325;12;547;15116
4331;11;557;15101
4320;11;575;15094
4323;10;564;15103
4328;11;559;15102
4328;13;568;15091
4337;17;562;15084
4335;14;572;15079
4321;13;577;15089
4336;14;577;15073
4336;14;574;15076
4315;16;591;15078
4306;14;595;15085
4297;12;597;15094
4300;13;607;15080
4289;16;607;15088
4271;11;632;15086
4253;11;634;15102
4245;14;636;15105
4231;12;665;15092
4234;12;667;15087
4246;12;638;15104
4235;12;636;15117
4207;14;643;15136
4193;18;644;15145
4171;16;672;15141
4123;15;681;15181
4092;16;696;15196
4072;19;703;15206
4051;15;701;15233
4038;16;693;15253
4020;16;690;15274
4002;15;685;15298
3964;13;679;15344
3959;16;639;15386
3947;26;624;15403
3940;20;614;15426
3923;18;626;15433
3916;12;625;15447
3936;11;599;15454
3906;12;620;15462
3911;15;592;15482
3916;13;568;15503
3920;15;537;15528
3910;15;547;15528
3930;12;556;15502
3953;14;548;15485
3953;15;571;15461
3979;12;559;15450
4006;9;546;15439
4046;7;528;15419
4049;10;536;15405
4062;10;519;15409
4079;16;530;15375
4071;14;533;15382
4080;16;504;15400
4095;12;502;15391
4120;12;488;15380
4146;11;491;15352
4156;9;508;15327
4187;8;510;15295
4220;10;522;15248
4224;12;510;15254
4222;12;521;15245
4227;18;521;15234
4259;18;489;15234
4282;13;484;15221
4319;11;466;15204
4335;14;485;15166
4372;14;478;15136
4402;16;468;15114
4425;16;470;15089
4463;19;446;15072
4471;14;468;15047
4486;9;472;15033
4509;9;449;15033
4524;10;446;15020
4546;8;457;14989
4565;13;459;14963
4560;11;487;14942
4582;6;503;14909
4576;4;536;14884
4565;5;544;14886
4559;7;549;14885
4545;10;528;14917
4534;11;544;14911
4526;12;551;14911
4515;12;566;14907
4511;14;561;14914
4494;17;560;14929
4484;14;562;14940
4490;18;570;14922
4499;14;562;14925
4514;15;560;14911
4498;15;574;14913
4489;14;580;14917
4520;20;544;14916
4536;17;547;14900
4534;17;547;14902
4532;21;555;14892
4528;23;553;14896
4526;17;590;14867
4524;13;582;14881
4502;8;604;14886
4505;17;601;14877
4515;12;614;14859
4515;14;611;14860
4505;12;615;14868
4497;12;623;14868
4489;10;607;14894
4497;14;583;14906
4504;14;582;14900
4508;11;582;14899
4514;11;592;14883
4528;6;575;14891
4507;13;602;14878
4522;15;611;14852
4495;13;637;14855
4458;15;672;14855
4465;17;632;14886
4466;16;641;14877
4459;18;640;14883
4454;14;636;14896
4443;19;630;14908
4437;14;641;14908
4445;15;637;14903
4424;12;631;14933
4434;15;630;14921
4455;12;621;14912
4426;13;649;14912
4389;16;660;14935
4355;15;673;14957
4310;15;686;14989
4290;15;698;14997
4269;14;709;15008
4254;11;731;15004
4246;15;718;15021
4234;17;710;15039
4224;18;708;15050
4208;15;695;15082
4175;13;700;15112
4195;16;665;15124
4190;14;663;15133
4190;10;672;15128
4150;13;677;15160
4121;16;683;15180
4150;17;668;15165
4164;18;668;15150
4150;23;690;15137
4138;22;689;15151
4107;23;691;15179
4112;22;673;15193
4104;18;671;15207
4104;15;653;15228
4126;13;659;15202
4132;13;642;15213
4152;14;648;15186
4151;13;657;15179
4136;17;665;15182
4116;20;657;15207
4098;22;668;15212
4107;19;630;15244
4136;19;608;15237
4122;23;634;15221
4152;21;604;15223
4186;17;591;15206
4174;13;630;15183
4186;13;641;15160
4213;16;604;15167
4228;19;588;15165
4221;25;596;15158
4247;21;603;15129
4247;19;604;15130
4248;15;609;15128
4256;14;617;15113
4248;16;627;15109
4250;11;633;15106
4265;11;619;15105
4256;9;622;15113
4251;9;620;15120
4236;16;619;15129
4251;15;607;15127
4236;10;630;15124
4242;11;624;15123
4240;10;621;15129
4240;8;639;15113
4243;9;621;15127
4255;10;622;15113
4249;15;641;15095
4255;12;641;15092
4285;11;618;15086
4252;15;602;15131
4271;16;584;15129
4283;13;576;15128
4279;13;587;15121
4249;16;622;15113
4235;18;628;15119
4252;18;614;15116
4269;13;601;15117
4279;9;605;15107
4307;10;596;15087
4314;15;596;15075
4333;16;605;15046
4360;13;607;15020
4362;14;622;15002
4388;12;615;14985
4387;12;632;14969
4381;16;638;14965
4369;14;661;14956
4364;19;644;14973
4346;19;651;14984
4327;15;648;15010
4319;17;640;15024
4315;18;639;15028
4308;15;630;15047
4299;13;628;15060
4305;13;581;15101
4302;9;577;15112
4322;7;568;15103
4323;9;590;15078
4338;12;575;15075
4359;14;568;15059
4401;11;556;15032
4421;13;563;15003
4418;18;567;14997
4450;16;565;14969
4462;16;579;14943
4447;15;595;14943
4438;13;607;14942
4432;13;604;14951
4447;13;605;14935
4444;15;609;14932
4442;16;632;14910
4449;16;656;14879
4434;17;664;14885
4425;14;660;14901
4404;14;654;14928
4381;15;667;14937
4367;18;668;14947
4347;13;697;14943
4363;13;679;14945
4333;11;680;14976
4316;10;685;14989
4288;8;699;15005
4279;10;704;15007
4270;12;701;15017
4223;11;735;15031
4190;15;747;15048
4170;17;755;15058
4158;14;767;15061
4110;12;789;15089
4097;11;795;15097
4042;15;800;15143
4040;14;788;15158
4012;13;768;15207
3979;17;777;15227
3952;20;773;15255
3955;20;750;15275
3937;18;715;15330
3913;17;729;15341
3902;22;718;15358
3881;24;704;15391
3883;21;677;15419
3894;23;667;15416
3911;26;646;15417
3919;29;656;15396
3906;18;667;15409
3905;18;673;15404
3893;20;679;15408
3904;17;663;15416
3922;21;661;15396
3932;14;657;15397
3944;11;625;15420
3974;12;604;15410
4000;10;614;15376
4010;13;618;15359
4017;14;624;15345
4027;10;618;15345
4041;8;573;15378
4037;11;585;15367
4036;7;578;15379
4067;9;565;15359
4090;10;559;15341
4123;9;545;15323
4124;8;554;15314
4135;11;550;15304
4126;8;560;15306
4142;10;559;15289
4140;14;565;15281
4151;14;570;15265
4154;13;557;15276
4175;12;541;15272
4183;12;560;15245
4187;11;558;15244
4171;16;551;15262
4179;13;552;15256
4177;14;565;15244
4203;13;544;15240
4215;11;529;15245
4229;8;533;15230
4238;6;557;15199
4233;8;565;15194
4254;11;551;15184
4291;10;540;15159
4291;11;538;15160
4292;10;544;15154
4302;8;544;15146
4327;8;521;15144
4331;11;539;15119
4342;11;541;15106
4351;12;539;15098
4362;15;550;15073
4383;14;560;15043
4393;16;555;15036
4389;20;551;15040
4409;15;532;15044
4432;13;495;15060
4433;11;514;15042
