Susceptible;Exposed;Infected;Recovered
19980;0;20;0
19967;5;23;5
19943;10;36;11
19922;13;45;20
19877;18;80;25
19800;26;131;43
19668;31;234;67
19467;41;378;114
19139;51;612;199
18568;63;1064;305
17733;68;1691;508
16471;68;2645;816
14740;69;3883;1308
12549;75;5377;1999
10157;71;6777;2995
7761;54;8020;4165
5745;47;8714;5494
4168;41;8918;6873
3038;32;8717;8213
2242;27;8282;9449
1649;24;7754;10573
1315;21;7005;11659
1095;20;6269;12616
939;29;5624;13409
818;27;5006;14149
734;29;4482;14755
669;24;3919;15388
629;30;3429;15912
597;31;3007;16365
609;21;2651;16719
635;20;2283;17062
648;22;2042;17288
660;18;1806;17516
678;18;1596;17708
730;12;1405;17853
781;13;1206;18000
820;15;1050;18115
861;17;933;18189
898;11;833;18258
940;10;737;18313
992;6;668;18334
1028;7;594;18371
1058;6;514;18422
1104;7;448;18441
1186;5;384;18425
1229;4;344;18423
1280;4;317;18399
1339;4;283;18374
1412;3;253;18332
1467;5;224;18304
1526;5;208;18261
1583;6;198;18213
1636;5;177;18182
1687;3;172;18138
1733;3;153;18111
1785;2;137;18076
1830;2;118;18050
1879;2;106;18013
1920;2;100;17978
1972;1;90;17937
2021;1;85;17893
2072;1;75;17852
2123;1;67;17809
2170;2;58;17770
2221;2;51;17726
2276;0;48;17676
2331;0;46;17623
2390;0;42;17568
2443;1;45;17511
2489;2;38;17471
2540;2;38;17420
2579;0;43;17378
2627;0;44;17329
2670;0;44;17286
2721;1;42;17236
2773;1;39;17187
2833;0;36;17131
2886;0;38;17076
2934;0;30;17036
2973;0;32;16995
3026;0;30;16944
3073;0;24;16903
3123;0;28;16849
3155;0;28;16817
3206;0;29;16765
3260;0;26;16714
3306;0;19;16675
3361;0;18;16621
3414;0;18;16568
3464;0;16;16520
3511;0;12;16477
3557;0;12;16431
3584;0;13;16403
3623;0;10;16367
3673;0;10;16317
3713;0;10;16277
3766;0;9;16225
3813;0;9;16178
3857;0;10;16133
3896;0;11;16093
3949;0;14;16037
3988;0;17;15995
4036;0;16;15948
4079;0;18;15903
4131;0;17;15852
4174;0;19;15807
4221;0;18;15761
4259;0;21;15720
4296;0;25;15679
4340;0;25;15635
4375;0;30;15595
4412;0;33;15555
4459;0;28;15513
4495;0;29;15476
4541;0;30;15429
4594;0;30;15376
4620;0;32;15348
4651;0;34;15315
4690;0;35;15275
4734;0;30;15236
4768;0;27;15205
4800;0;19;15181
4843;0;20;15137
4885;0;19;15096
4942;0;17;15041
4975;0;17;15008
5019;0;17;14964
5054;0;15;14931
5093;1;16;14890
5125;0;19;14856
5160;0;19;14821
5201;0;18;14781
5226;0;18;14756
5254;0;17;14729
5304;0;17;14679
5341;0;20;14639
5373;0;22;14605
5419;0;21;14560
5461;0;24;14515
5500;0;26;14474
5522;0;26;14452
5554;0;27;14419
5594;0;20;14386
5626;0;28;14346
5668;0;25;14307
5713;0;27;14260
5753;1;28;14218
5786;1;34;14179
5829;1;30;14140
5854;0;41;14105
5889;0;40;14071
5922;0;44;14034
5939;0;44;14017
5966;1;48;13985
5985;1;57;13957
6027;1;60;13912
6050;1;64;13885
6071;0;75;13854
6104;0;71;13825
6129;0;76;13795
6148;0;81;13771
6166;0;87;13747
6191;0;89;13720
6217;0;90;13693
6239;1;100;13660
6250;0;108;13642
6282;1;120;13597
6301;1;118;13580
6305;2;121;13572
6320;2;138;13540
6331;2;145;13522
6322;1;168;13509
6314;1;182;13503
6301;1;205;13493
6309;0;204;13487
6290;0;229;13481
6255;0;253;13492
6228;0;276;13496
6218;0;299;13483
6179;1;319;13501
6149;1;343;13507
6103;2;376;13519
6042;2;391;13565
5996;3;426;13575
5959;4;433;13604
5901;3;463;13633
5861;4;468;13667
5788;3;496;13713
5732;4;514;13750
5650;3;564;13783
5561;5;610;13824
5473;3;648;13876
5390;4;674;13932
5289;9;703;13999
5167;10;773;14050
5090;12;783;14115
4971;12;832;14185
4867;11;850;14272
4764;14;851;14371
4668;13;864;14455
4560;10;889;14541
4447;10;899;14644
4353;9;926;14712
4251;10;948;14791
4162;10;957;14871
4073;11;952;14964
3994;10;957;15039
3901;13;962;15124
3833;13;940;15214
3751;16;927;15306
3687;17;908;15388
3631;18;883;15468
3571;18;870;15541
3506;13;878;15603
3454;13;861;15672
3426;16;809;15749
3369;15;791;15825
3348;13;748;15891
3310;11;734;15945
3313;13;692;15982
3309;11;675;16005
3272;11;678;16039
3277;10;649;16064
3250;9;638;16103
3243;7;614;16136
3262;7;561;16170
3281;3;547;16169
3315;3;500;16182
3350;6;484;16160
3366;7;464;16163
3399;7;452;16142
3411;7;447;16135
3424;11;436;16129
3456;13;408;16123
3473;10;414;16103
3503;7;396;16094
3539;8;378;16075
3548;10;376;16066
3584;12;382;16022
3628;10;373;15989
3658;8;358;15976
3683;11;381;15925
3705;6;367;15922
3728;5;378;15889
3758;5;355;15882
3798;6;340;15856
3821;7;338;15834
3853;4;347;15796
3868;6;335;15791
3910;3;329;15758
3932;5;338;15725
3957;8;326;15709
3987;7;333;15673
4035;6;337;15622
4059;6;328;15607
4086;4;330;15580
4112;6;327;15555
4146;5;313;15536
4185;3;310;15502
4228;4;301;15467
4267;4;302;15427
4309;5;300;15386
4308;4;307;15381
4338;6;320;15336
4388;5;311;15296
4416;3;325;15256
4431;8;320;15241
4456;6;343;15195
4487;4;352;15157
4506;4;357;15133
4526;6;361;15107
4542;4;376;15078
4558;2;380;15060
4548;3;394;15055
4561;4;397;15038
4570;4;390;15036
4598;4;397;15001
4641;4;384;14971
4656;5;379;14960
4665;9;383;14943
4675;7;382;14936
4693;7;404;14896
4694;7;422;14877
4696;8;426;14870
4701;12;426;14861
4711;12;435;14842
4724;10;442;14824
4761;11;419;14809
4789;12;389;14810
4799;11;396;14794
4820;12;415;14753
4830;15;430;14725
4837;12;441;14710
4850;8;456;14686
4851;6;473;14670
4853;5;476;14666
4855;7;475;14663
4842;5;490;14663
4840;4;507;14649
4840;3;509;14648
4847;6;515;14632
4835;4;519;14642
4825;7;521;14647
4802;9;547;14642
4776;5;558;14661
4766;7;554;14673
4764;7;581;14648
4724;9;614;14653
4695;7;633;14665
4673;11;639;14677
4639;11;663;14687
4612;13;655;14720
4613;10;669;14708
4606;13;693;14688
4534;15;743;14708
4485;18;775;14722
4465;17;776;14742
4441;13;799;14747
4390;16;813;14781
4350;17;804;14829
4315;16;808;14861
4257;15;835;14893
4246;11;814;14929
4215;13;807;14965
4170;16;803;15011
4136;16;846;15002
4088;14;873;15025
4028;15;879;15078
3995;13;870;15122
3996;12;833;15159
3984;16;824;15176
3967;15;814;15204
3962;12;807;15219
3935;9;790;15266
3941;14;759;15286
3941;16;711;15332
3946;16;701;15337
3960;10;670;15360
3952;7;675;15366
3968;14;634;15384
3950;19;641;15390
3972;18;612;15398
4013;17;589;15381
4020;15;591;15374
4052;17;584;15347
4073;15;616;15296
4078;12;601;15309
4097;13;571;15319
4088;15;585;15312
4096;16;589;15299
4102;16;601;15281
4124;15;600;15261
4143;14;599;15244
4121;17;603;15259
4118;16;584;15282
4110;16;580;15294
4125;17;574;15284
4105;17;572;15306
4113;16;549;15322
4120;11;558;15311
4127;11;566;15296
4147;14;549;15290
4180;13;521;15286
4212;9;522;15257
4247;7;509;15237
4279;4;502;15215
4296;7;496;15201
4321;11;474;15194
4346;8;488;15158
4367;7;481;15145
4389;8;490;15113
4418;9;466;15107
4464;10;451;15075
4478;10;451;15061
4497;12;454;15037
4476;11;480;15033
4489;11;502;14998
4512;15;504;14969
4526;21;515;14938
4536;22;515;14927
4566;16;527;14891
4569;15;554;14862
4571;9;559;14861
4574;11;553;14862
4583;14;558;14845
4573;11;574;14842
4550;15;579;14856
4544;15;614;14827
4516;16;636;14832
4490;19;650;14841
4475;12;676;14837
4475;15;668;14842
4450;16;675;14859
4415;16;672;14897
4403;16;681;14900
4377;18;680;14925
4375;21;666;14938
4362;16;680;14942
4336;12;677;14975
4336;11;677;14976
4302;14;700;14984
4282;16;687;15015
4264;15;689;15032
4238;16;687;15059
4223;17;687;15073
4196;18;691;15095
4159;22;707;15112
4145;18;697;15140
4137;18;694;15151
4130;15;690;15165
4108;20;687;15185
4111;20;682;15187
4099;16;685;15200
4080;17;671;15232
4085;18;641;15256
4067;19;646;15268
4047;19;676;15258
4032;18;698;15252
4007;18;693;15282
3998;18;692;15292
3983;18;682;15317
3972;14;689;15325
3944;17;666;15373
3966;13;652;15369
3964;17;653;15366
3974;10;648;15368
3958;13;669;15360
3940;11;664;15385
3931;11;652;15406
3941;13;626;15420
3948;10;622;15420
3951;11;612;15426
3964;13;595;15428
3970;13;586;15431
3973;14;567;15446
3986;13;555;15446
3990;12;546;15452
4012;8;562;15418
3988;14;559;15439
4019;21;562;15398
4028;17;582;15373
4024;17;601;15358
4018;12;578;15392
4004;9;603;15384
4024;11;588;15377
4029;13;577;15381
3993;15;589;15403
4018;17;564;15401
4025;17;550;15408
4055;16;538;15391
4067;14;544;15375
4088;14;541;15357
4101;13;526;15360
4137;9;513;15341
4154;9;513;15324
4190;13;506;15291
4189;11;531;15269
4198;10;530;15262
4217;6;522;15255
4215;7;541;15237
4204;12;541;15243
4215;13;526;15246
4225;13;538;15224
4225;12;542;15221
4207;15;547;15231
4208;15;539;15238
4204;14;557;15225
4208;16;536;15240
4224;14;503;15259
4238;12;502;15248
4268;15;474;15243
4287;16;484;15213
4302;16;499;15183
4321;19;485;15175
4316;20;483;15181
4315;20;480;15185
4324;20;497;15159
4329;16;508;15147
4349;12;495;15144
4341;10;488;15161
4334;9;493;15164
4351;9;489;15151
4360;9;489;15142
4374;9;482;15135
4400;8;463;15129
4400;10;472;15118
4417;11;486;15086
4427;11;474;15088
4420;10;488;15082
4429;11;493;15067
4459;11;489;15041
4493;9;482;15016
4499;6;488;15007
4496;9;497;14998
4491;8;519;14982
4499;13;521;14967
4494;9;532;14965
4497;10;559;14934
4498;13;550;14939
4487;14;553;14946
4501;12;554;14933
4500;6;545;14949
4501;4;528;14967
4516;9;518;14957
4533;10;531;14926
4507;13;561;14919
4514;10;554;14922
4510;11;575;14904
4513;11;551;14925
4507;14;543;14936
4493;19;542;14946
4501;18;561;14920
4491;15;575;14919
4492;15;582;14911
4495;13;583;14909
4492;7;592;14909
4497;8;575;14920
4481;10;567;14942
4464;12;564;14960
4443;11;572;14974
4436;15;573;14976
4448;16;553;14983
4459;13;535;14993
4457;9;554;14980
4478;8;539;14975
4456;10;554;14980
4462;13;551;14974
4478;11;550;14961
4485;9;544;14962
4514;6;535;14945
4516;7;539;14938
4514;7;548;14931
4521;5;546;14928
4519;6;542;14933
4543;9;552;14896
4535;8;563;14894
4525;9;579;14887
4536;8;573;14883
4545;7;561;14887
4554;9;571;14866
4534;7;603;14856
4514;14;601;14871
4526;12;592;14870
4528;12;588;14872
4526;10;598;14866
4536;9;603;14852
4531;10;618;14841
4528;13;616;14843
4518;15;629;14838
4513;20;632;14835
4507;20;625;14848
4501;10;642;14847
4481;15;647;14857
4487;13;652;14848
4475;10;643;14872
4471;11;656;14862
4463;6;663;14868
4444;6;675;14875
4422;12;686;14880
4403;15;688;14894
4402;16;701;14881
4374;12;704;14910
4387;9;701;14903
4358;8;704;14930
4322;12;710;14956
4325;12;706;14957
4311;12;700;14977
4310;18;685;14987
4309;16;671;15004
4280;16;697;15007
4277;17;685;15021
4265;17;682;15036
4262;21;671;15046
4250;17;676;15057
4255;21;669;15055
4257;21;663;15059
4245;22;656;15077
4239;18;652;15091
4248;15;659;15078
4256;10;661;15073
4259;12;664;15065
4256;20;659;15065
4230;23;696;15051
4255;18;682;15045
4244;17;693;15046
4257;12;684;15047
4267;14;659;15060
4249;16;682;15053
4240;20;679;15061
4248;19;672;15061
4249;16;669;15066
4215;16;686;15083
4227;20;696;15057
4220;17;703;15060
4225;21;690;15064
4200;22;698;15080
4169;20;736;15075
4177;20;724;15079
4148;20;737;15095
4125;19;746;15110
4117;16;730;15137
4090;13;727;15170
4049;14;716;15221
4053;14;713;15220
4044;16;710;15230
4021;17;723;15239
4016;16;733;15235
4039;21;712;15228
4058;18;687;15237
4054;17;688;15241
4060;9;674;15257
4056;8;681;15255
4058;11;681;15250
4036;12;677;15275
4050;14;662;15274
4050;20;654;15276
4041;17;661;15281
4016;22;660;15302
4017;23;642;15318
4037;21;642;15300
4028;17;644;15311
4057;19;629;15295
4078;14;632;15276
4061;13;640;15286
4068;17;645;15270
4068;19;653;15260
4078;16;668;15238
4072;14;664;15250
4087;13;646;15254
4099;18;645;15238
4087;14;648;15251
4079;15;624;15282
4088;12;626;15274
4065;16;636;15283
4053;14;670;15263
4034;20;676;15270
4033;26;660;15281
4019;20;672;15289
4015;18;651;15316
4028;13;661;15298
4025;11;644;15320
4046;13;649;15292
4056;15;635;15294
4043;14;651;15292
4042;13;641;15304
4040;12;649;15299
4032;14;641;15313
4029;16;637;15318
4035;16;644;15305
4048;16;626;15310
4073;14;600;15313
4093;17;591;15299
4079;15;605;15301
4087;17;599;15297
4067;19;625;15289
4060;17;635;15288
4084;16;623;15277
4083;19;615;15283
4079;17;626;15278
4082;17;602;15299
4084;17;598;15301
4076;16;604;15304
4091;20;590;15299
4094;18;600;15288
4086;12;608;15294
4083;14;599;15304
4044;13;623;15320
4066;13;585;15336
4049;13;608;15330
4053;11;594;15342
4057;13;608;15322
4039;17;611;15333
4021;15;638;15326
4011;16;613;15360
3994;21;619;15366
4012;17;618;15353
4013;18;627;15342
4031;15;619;15335
4040;16;631;15313
4053;15;624;15308
4087;9;622;15282
4104;14;606;15276
4099;8;604;15289
4116;10;592;15282
4130;10;588;15272
4136;9;607;15248
4126;11;623;15240
4144;9;604;15243
4131;14;603;15252
4161;10;603;15226
4148;13;609;15230
4135;10;635;15220
4116;10;649;15225
4120;13;624;15243
4130;11;604;15255
4134;17;595;15254
4152;14;584;15250
4140;9;595;15256
4140;12;584;15264
4128;17;592;15263
4125;18;605;15252
4132;25;596;15247
4142;24;589;15245
4157;22;585;15236
4167;19;578;15236
4182;19;550;15249
4191;17;546;15246
4199;8;550;15243
4190;12;556;15242
4218;9;536;15237
4238;8;564;15190
4269;10;533;15188
4293;10;545;15152
4319;9;520;15152
4308;8;527;15157
4305;9;507;15179
4307;10;507;15176
4320;8;489;15183
4332;10;497;15161
4338;10;482;15170
4346;10;491;15153
4340;9;515;15136
4353;10;520;15117
4366;10;540;15084
4396;9;515;15080
4404;10;507;15079
4401;8;507;15084
4440;8;508;15044
4452;10;502;15036
4478;12;495;15015
