Susceptible;Exposed;Infected;Recovered
19980;0;20;0
19969;7;20;4
19954;11;29;6
19934;15;40;11
19887;20;76;17
19826;22;118;34
19744;23;171;62
19600;33;280;87
19336;35;484;145
18885;39;824;252
18227;40;1295;438
17263;46;2015;676
15825;64;3057;1054
13900;73;4396;1631
11593;67;5894;2446
9243;53;7180;3524
6989;42;8226;4743
5145;37;8687;6131
3755;28;8785;7432
2757;27;8462;8754
2095;16;7874;10015
1606;18;7218;11158
1273;21;6529;12177
1049;26;5836;13089
900;25;5206;13869
774;30;4639;14557
703;30;4102;15165
658;27;3641;15674
639;23;3214;16124
625;25;2837;16513
609;21;2507;16863
630;22;2189;17159
646;21;1925;17408
678;19;1694;17609
713;19;1498;17770
762;17;1326;17895
787;20;1168;18025
829;21;1040;18110
863;17;927;18193
910;13;831;18246
934;10;738;18318
976;10;641;18373
1026;13;566;18395
1077;13;474;18436
1127;7;428;18438
1173;9;387;18431
1226;4;348;18422
1271;1;315;18413
1318;1;291;18390
1380;2;253;18365
1444;3;219;18334
1506;3;197;18294
1560;4;166;18270
1616;5;151;18228
1668;4;140;18188
1718;4;118;18160
1776;2;115;18107
1852;3;106;18039
1907;3;96;17994
1952;3;86;17959
2000;2;81;17917
2057;3;83;17857
2110;1;81;17808
2162;1;74;17763
2220;1;67;17712
2266;1;65;17668
2306;1;55;17638
2358;0;53;17589
2410;0;54;17536
2481;0;45;17474
2533;0;38;17429
2579;1;38;17382
2627;1;36;17336
2682;0;37;17281
2726;0;38;17236
2787;1;36;17176
2850;1;29;17120
2907;1;27;17065
2968;0;25;17007
3020;0;27;16953
3060;0;29;16911
3112;0;29;16859
3149;0;26;16825
3192;0;24;16784
3231;1;29;16739
3275;1;29;16695
3309;1;25;16665
3359;1;21;16619
3400;1;20;16579
3442;1;17;16540
3491;1;18;16490
3533;0;14;16453
3588;1;18;16393
3658;1;17;16324
3714;1;16;16269
3758;1;18;16223
3799;1;17;16183
3851;0;18;16131
3892;0;21;16087
3929;0;20;16051
3971;0;19;16010
4006;0;16;15978
4047;0;14;15939
4085;0;12;15903
4116;0;19;15865
4166;0;16;15818
4215;0;17;15768
4258;0;13;15729
4304;0;13;15683
4350;0;13;15637
4394;0;11;15595
4443;0;9;15548
4487;0;8;15505
4522;0;9;15469
4570;0;8;15422
4598;0;6;15396
4640;0;6;15354
4685;0;7;15308
4721;0;7;15272
4772;0;6;15222
4818;0;6;15176
4857;0;7;15136
4904;0;7;15089
4956;0;7;15037
5005;0;7;14988
5055;0;5;14940
5095;0;3;14902
5140;0;2;14858
5181;0;1;14818
5218;0;1;14781
5248;0;2;14750
5293;0;0;14707
5333;0;0;14667
5371;0;0;14629
5413;0;0;14587
5468;0;0;14532
5518;0;0;14482
5571;0;0;14429
5617;0;0;14383
5659;0;0;14341
5709;0;0;14291
5752;0;0;14248
5791;0;0;14209
5819;0;0;14181
5864;0;0;14136
5905;0;0;14095
5951;0;0;14049
5996;0;0;14004
6024;0;0;13976
6051;0;0;13949
6098;0;0;13902
6141;0;0;13859
6171;0;0;13829
6206;0;0;13794
6250;0;0;13750
6281;0;0;13719
6318;0;0;13682
6362;0;0;13638
6400;0;0;13600
6440;0;0;13560
6478;0;0;13522
6520;0;0;13480
6555;0;0;13445
6589;0;0;13411
6634;0;0;13366
6668;0;0;13332
6707;0;0;13293
6749;0;0;13251
6786;0;0;13214
6816;0;0;13184
6855;0;0;13145
6887;0;0;13113
6926;0;0;13074
6958;0;0;13042
6992;0;0;13008
7031;0;0;12969
7057;0;0;12943
7085;0;0;12915
7106;0;0;12894
7138;0;0;12862
7179;0;0;12821
7211;0;0;12789
7263;0;0;12737
7306;0;0;12694
7342;0;0;12658
7380;0;0;12620
7424;0;0;12576
7441;0;0;12559
7476;0;0;12524
7523;0;0;12477
7551;0;0;12449
7579;0;0;12421
7614;0;0;12386
7655;0;0;12345
7682;0;0;12318
7721;0;0;12279
7751;0;0;12249
7782;0;0;12218
7816;0;0;12184
7847;0;0;12153
7885;0;0;12115
7928;0;0;12072
7951;0;0;12049
7986;0;0;12014
8012;0;0;11988
8042;0;0;11958
8067;0;0;11933
8105;0;0;11895
8148;0;0;11852
8180;0;0;11820
8209;0;0;11791
8242;0;0;11758
8273;0;0;11727
8302;0;0;11698
8357;0;0;11643
8381;0;0;11619
8411;0;0;11589
8434;0;0;11566
8468;0;0;11532
8499;0;0;11501
8530;0;0;11470
8560;0;0;11440
8587;0;0;11413
8622;0;0;11378
8651;0;0;11349
8682;0;0;11318
8709;0;0;11291
8741;0;0;11259
8766;0;0;11234
8800;0;0;11200
8837;0;0;11163
8869;0;0;11131
8903;0;0;11097
8938;0;0;11062
8965;0;0;11035
8994;0;0;11006
9028;0;0;10972
9071;0;0;10929
9095;0;0;10905
9128;0;0;10872
9155;0;0;10845
9181;0;0;10819
9217;0;0;10783
9253;0;0;10747
9286;0;0;10714
9323;0;0;10677
9353;0;0;10647
9388;0;0;10612
9413;0;0;10587
9449;0;0;10551
9481;0;0;10519
9512;0;0;10488
9543;0;0;10457
9576;0;0;10424
9598;0;0;10402
9629;0;0;10371
9657;0;0;10343
9689;0;0;10311
9717;0;0;10283
9752;0;0;10248
9786;0;0;10214
9808;0;0;10192
9835;0;0;10165
9864;0;0;10136
9903;0;0;10097
9934;0;0;10066
9965;0;0;10035
9992;0;0;10008
10020;0;0;9980
10040;0;0;9960
10064;0;0;9936
10091;0;0;9909
10111;0;0;9889
10131;0;0;9869
10156;0;0;9844
10180;0;0;9820
10209;0;0;9791
10238;0;0;9762
10260;0;0;9740
10290;0;0;9710
10305;0;0;9695
10330;0;0;9670
10350;0;0;9650
10367;0;0;9633
10388;0;0;9612
10408;0;0;9592
10435;0;0;9565
10461;0;0;9539
10486;0;0;9514
10503;0;0;9497
10535;0;0;9465
10561;0;0;9439
10589;0;0;9411
10627;0;0;9373
10650;0;0;9350
10672;0;0;9328
10705;0;0;9295
10725;0;0;9275
10757;0;0;9243
10780;0;0;9220
10814;0;0;9186
10835;0;0;9165
10864;0;0;9136
10894;0;0;9106
10927;0;0;9073
10952;0;0;9048
10978;0;0;9022
11009;0;0;8991
11027;0;0;8973
11056;0;0;8944
11082;0;0;8918
11106;0;0;8894
11128;0;0;8872
11153;0;0;8847
11173;0;0;8827
11198;0;0;8802
11219;0;0;8781
11244;0;0;8756
11275;0;0;8725
11297;0;0;8703
11318;0;0;8682
11333;0;0;8667
11347;0;0;8653
11374;0;0;8626
11396;0;0;8604
11414;0;0;8586
11434;0;0;8566
11452;0;0;8548
11480;0;0;8520
11506;0;0;8494
11525;0;0;8475
11552;0;0;8448
11576;0;0;8424
11599;0;0;8401
11612;0;0;8388
11635;0;0;8365
11659;0;0;8341
11689;0;0;8311
11713;0;0;8287
11732;0;0;8268
11752;0;0;8248
11770;0;0;8230
11796;0;0;8204
11824;0;0;8176
11855;0;0;8145
11873;0;0;8127
11896;0;0;8104
11916;0;0;8084
11932;0;0;8068
11955;0;0;8045
11973;0;0;8027
11993;0;0;8007
12013;0;0;7987
12042;0;0;7958
12071;0;0;7929
12089;0;0;7911
12118;0;0;7882
12135;0;0;7865
12151;0;0;7849
12165;0;0;7835
12183;0;0;7817
12197;0;0;7803
12226;0;0;7774
12244;0;0;7756
12268;0;0;7732
12297;0;0;7703
12317;0;0;7683
12335;0;0;7665
12355;0;0;7645
12377;0;0;7623
12397;0;0;7603
12422;0;0;7578
12446;0;0;7554
12464;0;0;7536
12478;0;0;7522
12494;0;0;7506
12512;0;0;7488
12524;0;0;7476
12546;0;0;7454
12560;0;0;7440
12579;0;0;7421
12597;0;0;7403
12621;0;0;7379
12641;0;0;7359
12661;0;0;7339
12677;0;0;7323
12700;0;0;7300
12718;0;0;7282
12730;0;0;7270
12747;0;0;7253
12761;0;0;7239
12784;0;0;7216
12803;0;0;7197
12819;0;0;7181
12838;0;0;7162
12852;0;0;7148
12876;0;0;7124
12893;0;0;7107
12911;0;0;7089
12929;0;0;7071
12953;0;0;7047
12966;0;0;7034
12981;0;0;7019
13002;0;0;6998
13015;0;0;6985
13033;0;0;6967
13055;0;0;6945
13080;0;0;6920
13105;0;0;6895
13118;0;0;6882
13139;0;0;6861
13155;0;0;6845
13175;0;0;6825
13188;0;0;6812
13201;0;0;6799
13215;0;0;6785
13232;0;0;6768
13256;0;0;6744
13271;0;0;6729
13294;0;0;6706
13314;0;0;6686
13337;0;0;6663
13354;0;0;6646
13371;0;0;6629
13389;0;0;6611
13403;0;0;6597
13429;0;0;6571
13449;0;0;6551
13471;0;0;6529
13484;0;0;6516
13500;0;0;6500
13514;0;0;6486
13529;0;0;6471
13547;0;0;6453
13566;0;0;6434
13590;0;0;6410
13624;0;0;6376
13645;0;0;6355
13660;0;0;6340
13669;0;0;6331
13688;0;0;6312
13706;0;0;6294
13720;0;0;6280
13731;0;0;6269
13755;0;0;6245
13770;0;0;6230
13783;0;0;6217
13797;0;0;6203
13812;0;0;6188
13827;0;0;6173
13846;0;0;6154
13865;0;0;6135
13877;0;0;6123
13900;0;0;6100
13916;0;0;6084
13939;0;0;6061
13955;0;0;6045
13971;0;0;6029
13994;0;0;6006
14014;0;0;5986
14026;0;0;5974
14043;0;0;5957
14060;0;0;5940
14072;0;0;5928
14087;0;0;5913
14098;0;0;5902
14110;0;0;5890
14120;0;0;5880
14137;0;0;5863
14154;0;0;5846
14167;0;0;5833
14183;0;0;5817
14198;0;0;5802
14216;0;0;5784
14229;0;0;5771
14241;0;0;5759
14263;0;0;5737
14281;0;0;5719
14301;0;0;5699
14314;0;0;5686
14331;0;0;5669
14344;0;0;5656
14358;0;0;5642
14375;0;0;5625
14386;0;0;5614
14405;0;0;5595
14416;0;0;5584
14430;0;0;5570
14446;0;0;5554
14462;0;0;5538
14479;0;0;5521
14486;0;0;5514
14502;0;0;5498
14523;0;0;5477
14538;0;0;5462
14559;0;0;5441
14569;0;0;5431
14577;0;0;5423
14600;0;0;5400
14611;0;0;5389
14634;0;0;5366
14650;0;0;5350
14663;0;0;5337
14680;0;0;5320
14697;0;0;5303
14712;0;0;5288
14718;0;0;5282
14725;0;0;5275
14735;0;0;5265
14749;0;0;5251
14763;0;0;5237
14771;0;0;5229
14788;0;0;5212
14804;0;0;5196
14813;0;0;5187
14830;0;0;5170
14840;0;0;5160
14847;0;0;5153
14860;0;0;5140
14869;0;0;5131
14881;0;0;5119
14895;0;0;5105
14912;0;0;5088
14926;0;0;5074
14943;0;0;5057
14955;0;0;5045
14968;0;0;5032
14984;0;0;5016
14999;0;0;5001
15019;0;0;4981
15032;0;0;4968
15041;0;0;4959
15057;0;0;4943
15078;0;0;4922
15091;0;0;4909
15110;0;0;4890
15119;0;0;4881
15138;0;0;4862
15149;0;0;4851
15160;0;0;4840
15178;0;0;4822
15191;0;0;4809
15198;0;0;4802
15212;0;0;4788
15228;0;0;4772
15241;0;0;4759
15258;0;0;4742
15271;0;0;4729
15287;0;0;4713
15299;0;0;4701
15313;0;0;4687
15321;0;0;4679
15332;0;0;4668
15345;0;0;4655
15356;0;0;4644
15370;0;0;4630
15384;0;0;4616
15392;0;0;4608
15401;0;0;4599
15408;0;0;4592
15419;0;0;4581
15436;0;0;4564
15449;0;0;4551
15464;0;0;4536
15474;0;0;4526
15488;0;0;4512
15503;0;0;4497
15520;0;0;4480
15533;0;0;4467
15540;0;0;4460
15551;0;0;4449
15567;0;0;4433
15582;0;0;4418
15592;0;0;4408
15598;0;0;4402
15611;0;0;4389
15623;0;0;4377
15637;0;0;4363
15647;0;0;4353
15661;0;0;4339
15673;0;0;4327
15690;0;0;4310
15702;0;0;4298
15712;0;0;4288
15723;0;0;4277
15738;0;0;4262
15750;0;0;4250
15766;0;0;4234
15774;0;0;4226
15782;0;0;4218
15794;0;0;4206
15807;0;0;4193
15823;0;0;4177
15837;0;0;4163
15848;0;0;4152
15858;0;0;4142
15868;0;0;4132
15884;0;0;4116
15894;0;0;4106
15911;0;0;4089
15924;0;0;4076
15935;0;0;4065
15944;0;0;4056
15956;0;0;4044
15964;0;0;4036
15978;0;0;4022
15987;0;0;4013
15991;0;0;4009
15996;0;0;4004
16009;0;0;3991
16016;0;0;3984
16029;0;0;3971
16044;0;0;3956
16055;0;0;3945
16065;0;0;3935
16075;0;0;3925
16084;0;0;3916
16095;0;0;3905
16106;0;0;3894
16123;0;0;3877
16129;0;0;3871
16145;0;0;3855
16159;0;0;3841
16165;0;0;3835
16179;0;0;3821
16185;0;0;3815
16196;0;0;3804
16207;0;0;3793
16215;0;0;3785
16226;0;0;3774
16240;0;0;3760
16253;0;0;3747
16267;0;0;3733
16276;0;0;3724
16289;0;0;3711
16302;0;0;3698
16304;0;0;3696
16312;0;0;3688
16322;0;0;3678
16338;0;0;3662
16355;0;0;3645
16368;0;0;3632
16379;0;0;3621
16390;0;0;3610
16400;0;0;3600
16408;0;0;3592
16420;0;0;3580
16432;0;0;3568
16447;0;0;3553
16459;0;0;3541
16468;0;0;3532
16476;0;0;3524
16487;0;0;3513
16502;0;0;3498
16511;0;0;3489
16524;0;0;3476
16540;0;0;3460
16549;0;0;3451
16555;0;0;3445
16567;0;0;3433
16574;0;0;3426
16579;0;0;3421
16587;0;0;3413
16595;0;0;3405
16605;0;0;3395
16616;0;0;3384
16624;0;0;3376
16640;0;0;3360
16647;0;0;3353
16653;0;0;3347
16665;0;0;3335
16677;0;0;3323
16688;0;0;3312
16698;0;0;3302
16705;0;0;3295
16715;0;0;3285
16720;0;0;3280
16730;0;0;3270
16739;0;0;3261
16742;0;0;3258
16747;0;0;3253
16755;0;0;3245
16760;0;0;3240
16769;0;0;3231
16777;0;0;3223
16787;0;0;3213
16791;0;0;3209
16800;0;0;3200
16813;0;0;3187
16818;0;0;3182
16823;0;0;3177
16831;0;0;3169
16838;0;0;3162
16849;0;0;3151
16858;0;0;3142
16867;0;0;3133
16882;0;0;3118
16902;0;0;3098
16911;0;0;3089
16918;0;0;3082
16933;0;0;3067
16938;0;0;3062
16952;0;0;3048
16965;0;0;3035
16974;0;0;3026
16980;0;0;3020
16988;0;0;3012
16994;0;0;3006
17000;0;0;3000
17008;0;0;2992
17014;0;0;2986
17021;0;0;2979
17027;0;0;2973
17037;0;0;2963
17046;0;0;2954
17056;0;0;2944
17064;0;0;2936
17076;0;0;2924
17082;0;0;2918
17095;0;0;2905
17106;0;0;2894
17113;0;0;2887
17123;0;0;2877
17129;0;0;2871
17140;0;0;2860
17148;0;0;2852
17155;0;0;2845
17166;0;0;2834
17171;0;0;2829
17181;0;0;2819
