Susceptible;Exposed;Infected;Recovered
19980;0;20;0
19969;2;28;1
19949;8;36;7
19928;14;45;13
19891;15;73;21
19819;23;129;29
19696;27;215;62
19512;32;353;103
19216;37;575;172
18689;38;966;307
17934;53;1529;484
16728;66;2440;766
15110;67;3594;1229
12925;62;5157;1856
10539;65;6644;2752
8103;63;7929;3905
6036;46;8675;5243
4415;40;8890;6655
3204;26;8830;7940
2374;23;8356;9247
1781;22;7744;10453
1398;22;7080;11500
1100;18;6425;12457
914;19;5708;13359
791;16;5081;14112
704;19;4483;14794
652;18;3946;15384
625;17;3466;15892
601;18;3086;16295
600;17;2715;16668
622;19;2399;16960
642;20;2126;17212
656;19;1891;17434
689;16;1635;17660
722;16;1455;17807
740;21;1289;17950
779;16;1123;18082
835;9;986;18170
888;8;886;18218
925;7;756;18312
971;9;668;18352
1030;6;607;18357
1075;6;530;18389
1121;6;489;18384
1166;5;432;18397
1209;7;402;18382
1260;5;362;18373
1306;6;314;18374
1357;3;296;18344
1418;2;259;18321
1461;2;240;18297
1500;5;210;18285
1568;4;189;18239
1635;2;173;18190
1686;2;151;18161
1735;1;136;18128
1785;0;129;18086
1838;0;115;18047
1912;0;104;17984
1964;0;88;17948
2018;0;80;17902
2069;1;78;17852
2126;0;67;17807
2184;0;63;17753
2236;0;59;17705
2279;0;54;17667
2321;0;55;17624
2370;1;52;17577
2420;1;49;17530
2460;0;43;17497
2500;0;43;17457
2559;0;40;17401
2609;0;42;17349
2668;0;42;17290
2718;0;34;17248
2767;0;32;17201
2805;0;32;17163
2847;0;28;17125
2887;0;27;17086
2952;0;23;17025
2996;0;25;16979
3056;0;20;16924
3110;0;18;16872
3153;0;16;16831
3202;0;16;16782
3253;0;10;16737
3304;0;10;16686
3352;0;9;16639
3391;0;8;16601
3436;0;9;16555
3479;0;12;16509
3514;0;8;16478
3563;0;7;16430
3625;0;5;16370
3673;0;4;16323
3712;0;3;16285
3770;0;3;16227
3800;0;3;16197
3830;0;3;16167
3884;0;2;16114
3928;0;2;16070
3966;0;3;16031
4010;0;3;15987
4065;0;2;15933
4116;0;2;15882
4160;0;2;15838
4202;0;1;15797
4245;0;1;15754
4286;0;0;15714
4328;0;0;15672
4371;0;0;15629
4418;0;0;15582
4456;0;0;15544
4490;0;0;15510
4533;0;0;15467
4581;0;0;15419
4621;0;0;15379
4669;0;0;15331
4717;0;0;15283
4759;0;0;15241
4809;0;0;15191
4850;0;0;15150
4893;0;0;15107
4932;0;0;15068
4964;0;0;15036
5001;0;0;14999
5034;0;0;14966
5076;0;0;14924
5124;0;0;14876
5164;0;0;14836
5206;0;0;14794
5246;0;0;14754
5292;0;0;14708
5331;0;0;14669
5373;0;0;14627
5404;0;0;14596
5447;0;0;14553
5490;0;0;14510
5528;0;0;14472
5582;0;0;14418
5635;0;0;14365
5672;0;0;14328
5713;0;0;14287
5753;0;0;14247
5793;0;0;14207
5825;0;0;14175
5860;0;0;14140
5900;0;0;14100
5943;0;0;14057
5984;0;0;14016
6028;0;0;13972
6074;0;0;13926
6113;0;0;13887
6151;0;0;13849
6189;0;0;13811
6237;0;0;13763
6278;0;0;13722
6312;0;0;13688
6354;0;0;13646
6389;0;0;13611
6431;0;0;13569
6476;0;0;13524
6509;0;0;13491
6557;0;0;13443
6591;0;0;13409
6623;0;0;13377
6663;0;0;13337
6697;0;0;13303
6729;0;0;13271
6770;0;0;13230
6810;0;0;13190
6849;0;0;13151
6877;0;0;13123
6922;0;0;13078
6947;0;0;13053
6984;0;0;13016
7017;0;0;12983
7061;0;0;12939
7094;0;0;12906
7136;0;0;12864
7179;0;0;12821
7221;0;0;12779
7263;0;0;12737
7303;0;0;12697
7350;0;0;12650
7402;0;0;12598
7434;0;0;12566
7468;0;0;12532
7493;0;0;12507
7526;0;0;12474
7558;0;0;12442
7588;0;0;12412
7628;0;0;12372
7660;0;0;12340
7694;0;0;12306
7729;0;0;12271
7757;0;0;12243
7789;0;0;12211
7830;0;0;12170
7872;0;0;12128
7898;0;0;12102
7933;0;0;12067
7954;0;0;12046
7997;0;0;12003
8032;0;0;11968
8063;0;0;11937
8093;0;0;11907
8131;0;0;11869
8172;0;0;11828
8211;0;0;11789
8248;0;0;11752
8287;0;0;11713
8316;0;0;11684
8342;0;0;11658
8378;0;0;11622
8419;0;0;11581
8451;0;0;11549
8481;0;0;11519
8517;0;0;11483
8563;0;0;11437
8592;0;0;11408
8626;0;0;11374
8653;0;0;11347
8680;0;0;11320
8705;0;0;11295
8735;0;0;11265
8774;0;0;11226
8805;0;0;11195
8833;0;0;11167
8866;0;0;11134
8901;0;0;11099
8928;0;0;11072
8966;0;0;11034
8998;0;0;11002
9023;0;0;10977
9057;0;0;10943
9089;0;0;10911
9117;0;0;10883
9147;0;0;10853
9169;0;0;10831
9197;0;0;10803
9224;0;0;10776
9261;0;0;10739
9280;0;0;10720
9320;0;0;10680
9352;0;0;10648
9387;0;0;10613
9416;0;0;10584
9450;0;0;10550
9473;0;0;10527
9488;0;0;10512
9516;0;0;10484
9547;0;0;10453
9577;0;0;10423
9601;0;0;10399
9631;0;0;10369
9662;0;0;10338
9683;0;0;10317
9712;0;0;10288
9745;0;0;10255
9769;0;0;10231
9796;0;0;10204
9822;0;0;10178
9846;0;0;10154
9868;0;0;10132
9893;0;0;10107
9930;0;0;10070
9955;0;0;10045
9977;0;0;10023
10007;0;0;9993
10040;0;0;9960
10065;0;0;9935
10098;0;0;9902
10131;0;0;9869
10161;0;0;9839
10187;0;0;9813
10229;0;0;9771
10257;0;0;9743
10289;0;0;9711
10313;0;0;9687
10347;0;0;9653
10373;0;0;9627
10390;0;0;9610
10412;0;0;9588
10439;0;0;9561
10470;0;0;9530
10491;0;0;9509
10518;0;0;9482
10544;0;0;9456
10564;0;0;9436
10586;0;0;9414
10613;0;0;9387
10634;0;0;9366
10664;0;0;9336
10686;0;0;9314
10715;0;0;9285
10743;0;0;9257
10771;0;0;9229
10798;0;0;9202
10821;0;0;9179
10849;0;0;9151
10876;0;0;9124
10905;0;0;9095
10924;0;0;9076
10950;0;0;9050
10991;0;0;9009
11021;0;0;8979
11048;0;0;8952
11072;0;0;8928
11093;0;0;8907
11125;0;0;8875
11146;0;0;8854
11165;0;0;8835
11188;0;0;8812
11220;0;0;8780
11249;0;0;8751
11274;0;0;8726
11298;0;0;8702
11315;0;0;8685
11336;0;0;8664
11355;0;0;8645
11375;0;0;8625
11404;0;0;8596
11434;0;0;8566
11459;0;0;8541
11488;0;0;8512
11513;0;0;8487
11539;0;0;8461
11556;0;0;8444
11580;0;0;8420
11603;0;0;8397
11630;0;0;8370
11654;0;0;8346
11681;0;0;8319
11700;0;0;8300
11713;0;0;8287
11735;0;0;8265
11751;0;0;8249
11766;0;0;8234
11793;0;0;8207
11816;0;0;8184
11833;0;0;8167
11862;0;0;8138
11890;0;0;8110
11909;0;0;8091
11928;0;0;8072
11954;0;0;8046
11972;0;0;8028
11998;0;0;8002
12016;0;0;7984
12034;0;0;7966
12049;0;0;7951
12073;0;0;7927
12089;0;0;7911
12105;0;0;7895
12123;0;0;7877
12148;0;0;7852
12170;0;0;7830
12189;0;0;7811
12208;0;0;7792
12227;0;0;7773
12246;0;0;7754
12265;0;0;7735
12281;0;0;7719
12305;0;0;7695
12324;0;0;7676
12346;0;0;7654
12366;0;0;7634
12383;0;0;7617
12404;0;0;7596
12422;0;0;7578
12445;0;0;7555
12467;0;0;7533
12489;0;0;7511
12506;0;0;7494
12526;0;0;7474
12547;0;0;7453
12562;0;0;7438
12586;0;0;7414
12600;0;0;7400
12613;0;0;7387
12635;0;0;7365
12653;0;0;7347
12670;0;0;7330
12698;0;0;7302
12723;0;0;7277
12740;0;0;7260
12749;0;0;7251
12769;0;0;7231
12792;0;0;7208
12807;0;0;7193
12831;0;0;7169
12849;0;0;7151
12870;0;0;7130
12882;0;0;7118
12899;0;0;7101
12920;0;0;7080
12951;0;0;7049
12965;0;0;7035
12978;0;0;7022
12994;0;0;7006
13014;0;0;6986
13035;0;0;6965
13056;0;0;6944
13071;0;0;6929
13098;0;0;6902
13120;0;0;6880
13135;0;0;6865
13148;0;0;6852
13166;0;0;6834
13184;0;0;6816
13204;0;0;6796
13221;0;0;6779
13238;0;0;6762
13252;0;0;6748
13269;0;0;6731
13291;0;0;6709
13298;0;0;6702
13317;0;0;6683
13331;0;0;6669
13351;0;0;6649
13371;0;0;6629
13387;0;0;6613
13408;0;0;6592
13424;0;0;6576
13438;0;0;6562
13456;0;0;6544
13477;0;0;6523
13488;0;0;6512
13507;0;0;6493
13526;0;0;6474
13546;0;0;6454
13567;0;0;6433
13582;0;0;6418
13593;0;0;6407
13607;0;0;6393
13624;0;0;6376
13646;0;0;6354
13660;0;0;6340
13679;0;0;6321
13694;0;0;6306
13707;0;0;6293
13724;0;0;6276
13736;0;0;6264
13763;0;0;6237
13780;0;0;6220
13794;0;0;6206
13815;0;0;6185
13833;0;0;6167
13848;0;0;6152
13865;0;0;6135
13884;0;0;6116
13902;0;0;6098
13917;0;0;6083
13929;0;0;6071
13949;0;0;6051
13957;0;0;6043
13975;0;0;6025
13990;0;0;6010
14010;0;0;5990
14026;0;0;5974
14042;0;0;5958
14065;0;0;5935
14075;0;0;5925
14096;0;0;5904
14117;0;0;5883
14135;0;0;5865
14152;0;0;5848
14163;0;0;5837
14172;0;0;5828
14191;0;0;5809
14198;0;0;5802
14218;0;0;5782
14239;0;0;5761
14249;0;0;5751
14273;0;0;5727
14292;0;0;5708
14315;0;0;5685
14330;0;0;5670
14348;0;0;5652
14366;0;0;5634
14388;0;0;5612
14399;0;0;5601
14419;0;0;5581
14437;0;0;5563
14456;0;0;5544
14474;0;0;5526
14488;0;0;5512
14501;0;0;5499
14524;0;0;5476
14544;0;0;5456
14560;0;0;5440
14577;0;0;5423
14593;0;0;5407
14610;0;0;5390
14621;0;0;5379
14634;0;0;5366
14650;0;0;5350
14669;0;0;5331
14681;0;0;5319
14699;0;0;5301
14717;0;0;5283
14735;0;0;5265
14750;0;0;5250
14763;0;0;5237
14777;0;0;5223
14787;0;0;5213
14790;0;0;5210
14811;0;0;5189
14820;0;0;5180
14832;0;0;5168
14844;0;0;5156
14855;0;0;5145
14874;0;0;5126
14886;0;0;5114
14900;0;0;5100
14906;0;0;5094
14919;0;0;5081
14930;0;0;5070
14942;0;0;5058
14963;0;0;5037
14976;0;0;5024
14989;0;0;5011
15005;0;0;4995
15026;0;0;4974
15037;0;0;4963
15049;0;0;4951
15064;0;0;4936
15083;0;0;4917
15096;0;0;4904
15118;0;0;4882
15128;0;0;4872
15141;0;0;4859
15160;0;0;4840
15174;0;0;4826
15185;0;0;4815
15193;0;0;4807
15200;0;0;4800
15216;0;0;4784
15229;0;0;4771
15239;0;0;4761
15251;0;0;4749
15261;0;0;4739
15275;0;0;4725
15288;0;0;4712
15303;0;0;4697
15322;0;0;4678
15331;0;0;4669
15340;0;0;4660
15346;0;0;4654
15359;0;0;4641
15376;0;0;4624
15396;0;0;4604
15405;0;0;4595
15419;0;0;4581
15438;0;0;4562
15452;0;0;4548
15463;0;0;4537
15476;0;0;4524
15486;0;0;4514
15499;0;0;4501
15503;0;0;4497
15516;0;0;4484
15531;0;0;4469
15553;0;0;4447
15562;0;0;4438
15579;0;0;4421
15590;0;0;4410
15603;0;0;4397
15617;0;0;4383
15625;0;0;4375
15634;0;0;4366
15647;0;0;4353
15664;0;0;4336
15676;0;0;4324
15689;0;0;4311
15701;0;0;4299
15711;0;0;4289
15724;0;0;4276
15737;0;0;4263
15752;0;0;4248
15764;0;0;4236
15775;0;0;4225
15784;0;0;4216
15794;0;0;4206
15800;0;0;4200
15817;0;0;4183
15831;0;0;4169
15844;0;0;4156
15858;0;0;4142
15869;0;0;4131
15881;0;0;4119
15895;0;0;4105
15906;0;0;4094
15919;0;0;4081
15927;0;0;4073
15941;0;0;4059
15957;0;0;4043
15973;0;0;4027
15981;0;0;4019
15990;0;0;4010
15999;0;0;4001
16009;0;0;3991
16014;0;0;3986
16025;0;0;3975
16034;0;0;3966
16046;0;0;3954
16052;0;0;3948
16066;0;0;3934
16081;0;0;3919
16097;0;0;3903
16108;0;0;3892
16115;0;0;3885
16121;0;0;3879
16127;0;0;3873
16136;0;0;3864
16146;0;0;3854
16153;0;0;3847
16160;0;0;3840
16169;0;0;3831
16184;0;0;3816
16191;0;0;3809
16202;0;0;3798
16214;0;0;3786
16224;0;0;3776
16238;0;0;3762
16246;0;0;3754
16251;0;0;3749
16262;0;0;3738
16273;0;0;3727
16282;0;0;3718
16298;0;0;3702
16307;0;0;3693
16319;0;0;3681
16323;0;0;3677
16332;0;0;3668
16340;0;0;3660
16351;0;0;3649
16362;0;0;3638
16373;0;0;3627
16380;0;0;3620
16387;0;0;3613
16398;0;0;3602
16409;0;0;3591
16421;0;0;3579
16436;0;0;3564
16450;0;0;3550
16453;0;0;3547
16459;0;0;3541
16468;0;0;3532
16479;0;0;3521
16491;0;0;3509
16500;0;0;3500
16509;0;0;3491
16520;0;0;3480
16531;0;0;3469
16545;0;0;3455
16554;0;0;3446
16562;0;0;3438
16574;0;0;3426
16580;0;0;3420
16584;0;0;3416
16592;0;0;3408
16605;0;0;3395
16615;0;0;3385
16624;0;0;3376
16628;0;0;3372
16631;0;0;3369
16644;0;0;3356
16650;0;0;3350
16660;0;0;3340
16668;0;0;3332
16675;0;0;3325
16685;0;0;3315
16693;0;0;3307
16701;0;0;3299
16714;0;0;3286
16723;0;0;3277
16729;0;0;3271
16740;0;0;3260
16752;0;0;3248
16761;0;0;3239
16773;0;0;3227
16777;0;0;3223
16784;0;0;3216
16794;0;0;3206
16803;0;0;3197
16812;0;0;3188
16817;0;0;3183
16830;0;0;3170
16839;0;0;3161
16839;0;0;3161
16850;0;0;3150
16862;0;0;3138
16868;0;0;3132
16880;0;0;3120
16889;0;0;3111
16896;0;0;3104
16905;0;0;3095
16918;0;0;3082
16926;0;0;3074
16929;0;0;3071
16933;0;0;3067
16941;0;0;3059
16955;0;0;3045
16962;0;0;3038
16972;0;0;3028
16980;0;0;3020
16989;0;0;3011
16997;0;0;3003
17005;0;0;2995
17008;0;0;2992
17015;0;0;2985
17019;0;0;2981
17027;0;0;2973
17036;0;0;2964
17042;0;0;2958
17045;0;0;2955
17056;0;0;2944
17061;0;0;2939
17069;0;0;2931
17077;0;0;2923
17082;0;0;2918
17088;0;0;2912
17095;0;0;2905
17109;0;0;2891
17112;0;0;2888
17117;0;0;2883
17120;0;0;2880
17128;0;0;2872
