Susceptible;Exposed;Infected;Recovered
19980;0;20;0
19966;6;21;7
19951;10;30;9
19925;17;41;17
19903;17;54;26
19856;22;79;43
19770;27;145;58
19657;29;221;93
19444;38;387;131
19102;40;649;209
18533;37;1105;325
17593;42;1831;534
16204;47;2840;909
14380;59;4084;1477
12158;66;5579;2197
9798;56;6957;3189
7430;46;8142;4382
5419;43;8777;5761
3972;39;8892;7097
2925;32;8589;8454
2195;24;8093;9688
1672;25;7429;10874
1321;27;6703;11949
1070;30;6022;12878
897;26;5440;13637
820;26;4817;14337
760;25;4304;14911
705;23;3808;15464
672;30;3379;15919
665;31;2992;16312
656;32;2641;16671
682;30;2335;16953
677;28;2083;17212
692;21;1850;17437
710;20;1619;17651
750;21;1391;17838
784;22;1229;17965
812;19;1099;18070
861;13;980;18146
903;9;874;18214
963;9;777;18251
1014;7;692;18287
1057;9;620;18314
1088;10;562;18340
1147;8;509;18336
1185;9;443;18363
1236;8;402;18354
1300;7;356;18337
1353;5;320;18322
1407;4;280;18309
1479;4;252;18265
1530;3;231;18236
1598;3;203;18196
1657;4;178;18161
1701;3;163;18133
1767;3;139;18091
1801;3;126;18070
1837;2;118;18043
1889;2;102;18007
1939;1;102;17958
1998;1;96;17905
2046;1;79;17874
2094;1;69;17836
2137;0;68;17795
2181;0;58;17761
2243;0;49;17708
2301;0;47;17652
2355;0;49;17596
2409;0;52;17539
2463;0;50;17487
2513;0;44;17443
2566;0;42;17392
2611;0;44;17345
2658;0;38;17304
2695;0;39;17266
2750;0;36;17214
2801;0;33;17166
2851;0;29;17120
2899;0;21;17080
2965;0;21;17014
3000;0;25;16975
3045;0;23;16932
3093;1;19;16887
3148;1;15;16836
3202;1;12;16785
3255;1;12;16732
3299;1;13;16687
3344;1;15;16640
3384;1;14;16601
3437;0;13;16550
3477;0;10;16513
3517;0;12;16471
3565;0;10;16425
3616;0;12;16372
3666;0;13;16321
3709;0;13;16278
3758;1;14;16227
3803;1;15;16181
3850;2;13;16135
3901;1;13;16085
3942;0;14;16044
3997;0;14;15989
4042;0;15;15943
4083;0;9;15908
4115;0;9;15876
4146;0;10;15844
4189;1;14;15796
4228;0;16;15756
4282;0;15;15703
4322;0;17;15661
4351;0;16;15633
4381;0;15;15604
4441;0;16;15543
4488;0;16;15496
4516;0;14;15470
4558;0;17;15425
4603;0;19;15378
4643;0;17;15340
4689;0;18;15293
4732;0;21;15247
4765;0;19;15216
4801;0;18;15181
4833;0;24;15143
4868;0;27;15105
4908;0;27;15065
4936;1;31;15032
4963;0;32;15005
5008;0;29;14963
5047;0;23;14930
5085;0;26;14889
5130;0;28;14842
5167;0;25;14808
5207;0;32;14761
5245;0;32;14723
5283;0;37;14680
5333;1;36;14630
5373;1;36;14590
5390;1;45;14564
5415;0;50;14535
5452;0;51;14497
5488;0;56;14456
5532;0;56;14412
5568;0;60;14372
5584;0;71;14345
5613;0;73;14314
5625;1;81;14293
5641;1;92;14266
5651;1;98;14250
5666;1;103;14230
5699;0;100;14201
5722;0;101;14177
5729;0;107;14164
5761;1;104;14134
5779;1;99;14121
5793;1;108;14098
5818;1;111;14070
5839;1;124;14036
5854;1;133;14012
5878;0;137;13985
5894;0;145;13961
5876;2;173;13949
5856;2;192;13950
5882;1;190;13927
5884;2;210;13904
5872;3;214;13911
5858;3;233;13906
5873;2;224;13901
5863;1;238;13898
5858;0;246;13896
5846;1;270;13883
5826;2;298;13874
5811;1;313;13875
5782;2;330;13886
5748;6;338;13908
5715;7;353;13925
5699;1;366;13934
5673;2;384;13941
5660;3;384;13953
5641;2;394;13963
5595;2;417;13986
5567;3;428;14002
5537;4;425;14034
5489;4;458;14049
5473;2;469;14056
5407;2;504;14087
5347;3;529;14121
5293;4;547;14156
5240;7;563;14190
5164;12;597;14227
5098;12;641;14249
5003;12;691;14294
4938;13;711;14338
4860;12;726;14402
4782;11;728;14479
4701;9;757;14533
4642;8;746;14604
4569;9;742;14680
4492;10;777;14721
4404;10;820;14766
4326;13;820;14841
4242;11;837;14910
4190;10;848;14952
4132;9;864;14995
4065;12;866;15057
3990;14;850;15146
3902;15;866;15217
3857;14;814;15315
3835;14;786;15365
3781;14;791;15414
3736;16;765;15483
3668;17;782;15533
3601;13;776;15610
3571;11;788;15630
3533;14;772;15681
3504;15;763;15718
3488;18;725;15769
3487;15;720;15778
3470;16;694;15820
3456;16;691;15837
3431;14;687;15868
3404;19;682;15895
3385;20;663;15932
3374;19;647;15960
3373;20;632;15975
3373;19;626;15982
3380;20;613;15987
3381;16;597;16006
3395;15;586;16004
3394;13;558;16035
3405;12;530;16053
3428;9;527;16036
3428;9;544;16019
3458;8;529;16005
3488;7;486;16019
3496;7;478;16019
3511;7;476;16006
3545;9;443;16003
3577;10;419;15994
3600;8;406;15986
3648;9;392;15951
3675;10;376;15939
3726;7;348;15919
3767;5;341;15887
3785;6;315;15894
3841;8;304;15847
3864;6;302;15828
3916;7;299;15778
3943;6;301;15750
4009;7;289;15695
4022;6;310;15662
4061;4;306;15629
4111;3;292;15594
4152;4;287;15557
4210;2;286;15502
4214;5;307;15474
4245;7;308;15440
4288;7;292;15413
4332;5;291;15372
4359;6;288;15347
4393;5;277;15325
4424;5;283;15288
4450;4;282;15264
4485;5;283;15227
4535;6;278;15181
4563;7;291;15139
4594;7;291;15108
4620;7;308;15065
4642;7;328;15023
4676;9;337;14978
4689;9;347;14955
4681;8;364;14947
4688;5;377;14930
4699;6;408;14887
4723;4;400;14873
4739;4;400;14857
4743;6;421;14830
4758;6;430;14806
4777;6;419;14798
4773;3;424;14800
4789;3;402;14806
4807;4;399;14790
4820;5;391;14784
4847;5;395;14753
4857;6;406;14731
4881;6;409;14704
4892;6;418;14684
4892;6;436;14666
4890;8;449;14653
4878;8;472;14642
4876;8;470;14646
4872;10;467;14651
4887;11;478;14624
4918;8;475;14599
4900;8;482;14610
4889;10;488;14613
4921;11;481;14587
4958;6;473;14563
4971;6;483;14540
4955;7;518;14520
4936;10;517;14537
4922;11;539;14528
4876;16;553;14555
4862;14;581;14543
4856;16;587;14541
4831;14;622;14533
4807;15;639;14539
4767;6;660;14567
4753;12;639;14596
4732;12;628;14628
4689;13;648;14650
4671;11;658;14660
4661;12;656;14671
4638;15;667;14680
4601;12;693;14694
4594;13;666;14727
4569;11;672;14748
4568;9;670;14753
4524;13;685;14778
4513;15;695;14777
4478;13;704;14805
4449;10;710;14831
4393;11;724;14872
4375;11;713;14901
4334;12;730;14924
4313;10;778;14899
4245;13;762;14980
4244;12;748;14996
4197;13;780;15010
4160;18;778;15044
4107;16;812;15065
4063;13;808;15116
4051;11;807;15131
4035;13;800;15152
4024;15;801;15160
3990;15;814;15181
3954;19;802;15225
3912;15;787;15286
3904;13;780;15303
3899;12;772;15317
3870;19;759;15352
3857;16;743;15384
3857;15;728;15400
3855;9;734;15402
3830;11;737;15422
3821;11;717;15451
3825;11;706;15458
3818;15;686;15481
3827;19;678;15476
3826;17;665;15492
3833;19;654;15494
3844;20;634;15502
3859;20;628;15493
3872;20;627;15481
3888;20;621;15471
3889;14;618;15479
3899;14;615;15472
3892;15;625;15468
3910;14;616;15460
3908;18;601;15473
3935;12;587;15466
3946;10;581;15463
3987;10;548;15455
4025;7;540;15428
4043;8;527;15422
4065;6;545;15384
4097;8;543;15352
4097;10;524;15369
4123;10;531;15336
4167;13;518;15302
4193;12;518;15277
4197;12;534;15257
4211;15;523;15251
4211;15;528;15246
4199;14;540;15247
4210;14;539;15237
4207;15;542;15236
4215;10;562;15213
4221;12;572;15195
4207;16;589;15188
4211;15;596;15178
4238;11;593;15158
4269;9;584;15138
4275;8;566;15151
4265;11;573;15151
4273;10;574;15143
4290;11;560;15139
4303;8;575;15114
4325;10;562;15103
4307;10;596;15087
4311;11;583;15095
4300;11;585;15104
4319;9;564;15108
4329;13;570;15088
4332;15;569;15084
4328;16;575;15081
4337;15;555;15093
4341;13;548;15098
4340;11;573;15076
4336;10;583;15071
4329;11;576;15084
4345;12;590;15053
4347;17;581;15055
4365;14;580;15041
4359;16;578;15047
4365;22;577;15036
4361;20;590;15029
4372;13;592;15023
4369;17;580;15034
4344;20;603;15033
4357;17;582;15044
4324;15;612;15049
4301;17;630;15052
4292;15;614;15079
4294;13;606;15087
4303;12;615;15070
4283;13;614;15090
4259;14;626;15101
4237;12;620;15131
4229;9;613;15149
4231;9;594;15166
4227;10;584;15179
4205;8;576;15211
4210;9;570;15211
4192;9;590;15209
4201;8;567;15224
4206;6;567;15221
4220;9;577;15194
4266;6;541;15187
4264;6;546;15184
4257;6;550;15187
4242;7;563;15188
4248;5;571;15176
4241;11;576;15172
4220;11;611;15158
4229;13;606;15152
4222;14;604;15160
4226;11;598;15165
4244;10;575;15171
4253;8;568;15171
4236;6;580;15178
4218;7;602;15173
4218;12;602;15168
4200;5;629;15166
4201;8;610;15181
4214;13;621;15152
4220;8;602;15170
4206;9;607;15178
4204;7;603;15186
4189;12;601;15198
4179;15;617;15189
4174;19;620;15187
4168;17;630;15185
4159;15;625;15201
4148;16;645;15191
4144;15;645;15196
4147;16;647;15190
4133;11;679;15177
4120;11;646;15223
4102;10;656;15232
4095;8;633;15264
4058;9;647;15286
4043;11;633;15313
4045;16;625;15314
4060;14;615;15311
4075;12;607;15306
4087;13;601;15299
4093;10;593;15304
4113;9;583;15295
4105;9;600;15286
4076;9;642;15273
4073;10;597;15320
4031;15;634;15320
3992;15;648;15345
3986;14;628;15372
4005;16;608;15371
4006;13;592;15389
4015;15;583;15387
4034;11;573;15382
4018;10;604;15368
3999;13;612;15376
4013;16;586;15385
4046;16;566;15372
4065;11;582;15342
4078;6;577;15339
4086;5;557;15352
4097;8;528;15367
4099;10;542;15349
4129;11;531;15329
4131;16;541;15312
4120;19;544;15317
4125;16;542;15317
4142;16;533;15309
4136;15;539;15310
4148;14;513;15325
4155;13;517;15315
4145;16;538;15301
4167;11;556;15266
4174;10;546;15270
4183;7;528;15282
4183;8;548;15261
4202;12;547;15239
4206;13;558;15223
4218;12;571;15199
4226;11;586;15177
4240;12;575;15173
4259;12;556;15173
4260;11;563;15166
4260;17;548;15175
4277;11;559;15153
4280;13;577;15130
4288;11;577;15124
4298;12;539;15151
4340;10;529;15121
4353;13;527;15107
4362;14;533;15091
4371;13;540;15076
4367;13;546;15074
4368;6;576;15050
4355;10;580;15055
4341;13;591;15055
4346;12;596;15046
4368;14;587;15031
4382;10;597;15011
4376;13;616;14995
4379;12;624;14985
4351;14;655;14980
4328;14;670;14988
4309;15;672;15004
4259;12;722;15007
4231;10;732;15027
4228;11;710;15051
4242;14;684;15060
4201;16;697;15086
4161;18;691;15130
4184;18;682;15116
4176;19;680;15125
4186;20;671;15123
4194;22;672;15112
4175;24;659;15142
4150;18;695;15137
4124;17;699;15160
4124;18;661;15197
4109;14;682;15195
4095;15;677;15213
4077;19;681;15223
4079;11;671;15239
4094;14;656;15236
4103;15;650;15232
4095;21;657;15227
4105;19;658;15218
4116;18;652;15214
4139;16;649;15196
4131;20;646;15203
4135;20;619;15226
4127;22;626;15225
4156;22;594;15228
4167;17;589;15227
4211;18;567;15204
4227;19;569;15185
4236;10;582;15172
4270;14;581;15135
4248;19;595;15138
4251;18;608;15123
4244;12;626;15118
4277;10;602;15111
4310;8;571;15111
4315;12;569;15104
4319;13;577;15091
4324;12;578;15086
4341;13;563;15083
4360;13;565;15062
4379;10;560;15051
4388;11;568;15033
4402;8;572;15018
4395;10;591;15004
4382;15;614;14989
4395;14;608;14983
4391;12;606;14991
4427;11;580;14982
4445;10;556;14989
4451;7;572;14970
4418;12;590;14980
4409;13;586;14992
4390;9;599;15002
4367;6;625;15002
4389;7;623;14981
4374;9;623;14994
4388;19;638;14955
4378;20;649;14953
4378;20;644;14958
4352;18;672;14958
4350;23;659;14968
4354;20;639;14987
4364;15;633;14988
4357;19;635;14989
4357;17;629;14997
4360;16;635;14989
4347;19;626;15008
4351;17;613;15019
4335;16;644;15005
4337;17;630;15016
4353;19;616;15012
4349;18;617;15016
4350;18;600;15032
4359;14;597;15030
4349;16;600;15035
4368;14;611;15007
4353;12;636;14999
4331;13;632;15024
4308;15;632;15045
4294;18;650;15038
4267;17;670;15046
4277;17;656;15050
4281;12;654;15053
4266;14;659;15061
4285;12;666;15037
4293;10;650;15047
4281;11;653;15055
4274;9;662;15055
4280;14;668;15038
4293;10;672;15025
4268;6;671;15055
4286;9;639;15066
4277;9;648;15066
4297;6;657;15040
4291;12;641;15056
4304;14;629;15053
4317;15;632;15036
4321;17;629;15033
4313;14;640;15033
4321;14;651;15014
4307;14;683;14996
4276;17;678;15029
4258;18;645;15079
4257;16;650;15077
4243;12;647;15098
4246;12;669;15073
4230;17;675;15078
4234;20;675;15071
4231;15;675;15079
4200;10;672;15118
4178;10;694;15118
4180;11;674;15135
4164;10;687;15139
4173;15;680;15132
4167;17;664;15152
4178;18;658;15146
4158;19;671;15152
4136;19;665;15180
4128;19;658;15195
4107;23;678;15192
4103;19;692;15186
4102;21;688;15189
4079;24;684;15213
4066;18;701;15215
4079;17;687;15217
4067;20;695;15218
4050;14;711;15225
4044;14;717;15225
4014;18;707;15261
4036;16;684;15264
4068;15;666;15251
4047;14;679;15260
4041;14;651;15294
4051;13;648;15288
4026;11;664;15299
3999;16;671;15314
4028;14;636;15322
4023;18;651;15308
4044;18;648;15290
4043;17;640;15300
4043;19;636;15302
4028;14;630;15328
4024;15;644;15317
4021;17;645;15317
4030;18;638;15314
4043;13;611;15333
4024;12;620;15344
4041;14;607;15338
4041;13;586;15360
4054;14;589;15343
4043;10;617;15330
4044;14;598;15344
4068;16;597;15319
4086;18;591;15305
4106;14;578;15302
4137;15;559;15289
4154;12;550;15284
4142;13;564;15281
4161;16;542;15281
4177;12;548;15263
4192;11;536;15261
4189;10;543;15258
4181;12;565;15242
4207;13;576;15204
4221;13;576;15190
4226;13;566;15195
4228;9;580;15183
4232;12;575;15181
4226;11;587;15176
4240;9;581;15170
4228;9;596;15167
4227;10;576;15187
4221;12;579;15188
4257;15;563;15165
4254;13;572;15161
4289;12;565;15134
4297;13;548;15142
4285;14;570;15131
4293;13;604;15090
4305;15;597;15083
4292;16;615;15077
4293;15;614;15078
4299;11;609;15081
4295;12;594;15099
4305;14;590;15091
4321;12;604;15063
4335;9;604;15052
4348;7;612;15033
4333;10;628;15029
4350;11;623;15016
4349;18;622;15011
4347;15;660;14978
4345;16;642;14997
4325;22;641;15012
4350;16;631;15003
4358;14;636;14992
4335;15;649;15001
4325;19;659;14997
4297;17;680;15006
