Susceptible;Exposed;Infected;Recovered
19980;0;20;0
19970;7;17;6
19952;15;24;9
19935;17;33;15
19907;19;50;24
19874;19;75;32
19805;23;124;49
19686;23;225;66
19485;21;394;100
19148;30;644;178
18629;39;1036;298
17816;46;1646;492
16642;44;2539;775
14955;49;3755;1241
12765;42;5261;1932
10246;40;6835;2879
7792;45;8122;4041
5741;40;8790;5429
4113;36;9044;6807
2952;36;8794;8218
2142;25;8330;9503
1663;22;7633;10682
1295;23;6999;11683
1067;24;6300;12609
897;26;5635;13442
801;24;5018;14157
706;23;4464;14807
642;28;3915;15415
635;25;3457;15883
594;26;3070;16310
591;23;2711;16675
612;27;2393;16968
640;23;2111;17226
671;23;1878;17428
690;20;1662;17628
719;23;1469;17789
775;21;1290;17914
797;25;1153;18025
829;19;1054;18098
877;16;933;18174
904;18;833;18245
939;15;762;18284
971;13;688;18328
1019;9;614;18358
1068;8;545;18379
1098;7;482;18413
1161;5;431;18403
1220;4;385;18391
1273;4;340;18383
1306;6;312;18376
1361;6;283;18350
1411;5;258;18326
1469;7;213;18311
1521;5;200;18274
1556;2;182;18260
1617;2;158;18224
1661;3;136;18200
1722;4;129;18145
1776;3;119;18102
1834;4;102;18060
1895;4;94;18007
1957;2;86;17956
2031;1;82;17886
2080;1;70;17849
2148;3;63;17786
2197;3;58;17742
2258;3;54;17685
2310;4;53;17633
2375;3;51;17571
2431;2;45;17522
2487;2;46;17465
2542;2;42;17414
2586;2;37;17375
2635;2;31;17332
2693;0;30;17277
2748;0;29;17223
2799;0;29;17172
2846;0;33;17121
2895;0;30;17075
2937;0;23;17040
2983;1;18;16998
3024;0;17;16959
3079;0;19;16902
3123;0;14;16863
3181;0;16;16803
3232;0;14;16754
3292;0;12;16696
3336;0;12;16652
3397;0;10;16593
3444;0;10;16546
3488;1;10;16501
3531;1;10;16458
3583;1;10;16406
3636;0;10;16354
3674;0;10;16316
3726;0;9;16265
3765;0;8;16227
3813;0;7;16180
3868;0;5;16127
3920;0;5;16075
3964;0;6;16030
4016;0;7;15977
4060;0;8;15932
4105;0;8;15887
4157;0;9;15834
4196;0;14;15790
4230;0;12;15758
4271;0;15;15714
4307;0;16;15677
4358;0;16;15626
4397;1;13;15589
4447;0;15;15538
4489;0;18;15493
4519;0;19;15462
4566;0;17;15417
4615;0;18;15367
4652;0;17;15331
4681;0;18;15301
4726;0;14;15260
4763;0;15;15222
4804;0;14;15182
4844;1;13;15142
4886;1;15;15098
4935;1;15;15049
4968;1;12;15019
5007;1;13;14979
5045;0;13;14942
5086;0;12;14902
5132;0;12;14856
5173;0;12;14815
5208;1;12;14779
5240;1;11;14748
5283;1;12;14704
5327;0;15;14658
5363;0;16;14621
5401;0;20;14579
5433;0;18;14549
5482;0;17;14501
5518;0;19;14463
5558;0;19;14423
5597;0;15;14388
5634;0;17;14349
5665;0;17;14318
5700;0;16;14284
5733;0;14;14253
5774;0;17;14209
5814;0;16;14170
5842;0;16;14142
5883;0;20;14097
5915;0;23;14062
5944;0;21;14035
5980;0;24;13996
6010;0;20;13970
6035;0;20;13945
6075;0;23;13902
6113;0;20;13867
6142;1;26;13831
6174;1;23;13802
6217;1;22;13760
6247;1;27;13725
6286;1;29;13684
6306;0;35;13659
6345;0;30;13625
6379;0;43;13578
6405;0;41;13554
6445;0;43;13512
6474;2;48;13476
6511;2;50;13437
6542;2;47;13409
6581;1;47;13371
6607;1;52;13340
6623;1;55;13321
6644;1;61;13294
6667;2;71;13260
6684;0;79;13237
6707;0;87;13206
6722;0;96;13182
6730;0;114;13156
6742;0;124;13134
6738;0;129;13133
6740;0;145;13115
6741;1;161;13097
6723;2;187;13088
6724;3;189;13084
6721;3;212;13064
6710;3;240;13047
6693;4;259;13044
6671;5;269;13055
6666;5;267;13062
6623;6;302;13069
6569;7;348;13076
6533;8;375;13084
6476;7;407;13110
6416;6;433;13145
6354;5;464;13177
6262;4;526;13208
6190;5;541;13264
6094;4;586;13316
5973;6;660;13361
5863;4;708;13425
5745;5;746;13504
5614;7;804;13575
5474;10;853;13663
5346;11;875;13768
5182;13;935;13870
5048;13;967;13972
4938;10;981;14071
4787;11;1017;14185
4640;11;1045;14304
4517;14;1082;14387
4416;13;1049;14522
4282;12;1082;14624
4163;13;1091;14733
4054;13;1081;14852
3967;13;1045;14975
3888;12;1017;15083
3812;13;995;15180
3720;10;980;15290
3681;10;939;15370
3612;12;944;15432
3556;15;927;15502
3503;15;897;15585
3456;14;877;15653
3421;17;829;15733
3376;19;809;15796
3360;14;787;15839
3359;12;746;15883
3368;10;706;15916
3346;13;694;15947
3332;9;677;15982
3313;9;656;16022
3305;14;632;16049
3289;10;621;16080
3276;11;592;16121
3272;10;568;16150
3274;10;555;16161
3278;8;528;16186
3288;9;520;16183
3310;7;502;16181
3335;8;488;16169
3348;7;488;16157
3394;6;448;16152
3436;5;435;16124
3477;11;404;16108
3491;8;400;16101
3528;6;383;16083
3531;5;381;16083
3591;6;354;16049
3637;5;353;16005
3667;6;359;15968
3693;3;354;15950
3731;3;345;15921
3778;4;338;15880
3812;7;337;15844
3851;7;333;15809
3895;6;321;15778
3956;3;303;15738
4001;6;308;15685
4026;7;316;15651
4064;7;302;15627
4094;7;302;15597
4129;4;298;15569
4157;2;296;15545
4176;3;297;15524
4208;5;282;15505
4235;8;287;15470
4272;6;289;15433
4291;5;290;15414
4342;4;278;15376
4368;3;282;15347
4407;3;267;15323
4436;3;267;15294
4477;4;274;15245
4521;3;263;15213
4562;3;267;15168
4582;6;275;15137
4627;5;278;15090
4650;5;279;15066
4661;6;285;15048
4682;8;304;15006
4719;7;319;14955
4713;5;346;14936
4712;10;363;14915
4727;6;372;14895
4744;6;383;14867
4766;6;394;14834
4771;10;410;14809
4779;10;431;14780
4785;8;441;14766
4772;11;452;14765
4755;13;476;14756
4748;13;487;14752
4733;13;498;14756
4713;14;523;14750
4717;11;515;14757
4709;8;550;14733
4684;8;554;14754
4656;9;560;14775
4633;8;573;14786
4606;6;578;14810
4620;7;555;14818
4620;7;584;14789
4599;7;603;14791
4596;7;622;14775
4589;8;632;14771
4554;5;659;14782
4546;9;657;14788
4513;9;670;14808
4490;10;693;14807
4460;14;695;14831
4400;13;742;14845
4361;12;720;14907
4325;10;728;14937
4314;7;740;14939
4265;12;753;14970
4205;13;792;14990
4177;15;795;15013
4148;23;787;15042
4119;15;786;15080
4103;14;782;15101
4100;12;746;15142
4082;16;742;15160
4063;18;750;15169
4047;17;749;15187
4044;17;743;15196
4023;17;735;15225
4019;19;716;15246
4039;17;729;15215
4023;21;734;15222
4012;18;722;15248
3999;17;728;15256
4000;18;701;15281
3994;13;700;15293
3994;15;679;15312
3978;18;679;15325
3976;20;684;15320
3943;23;685;15349
3949;21;666;15364
3975;21;652;15352
3974;22;632;15372
3981;19;624;15376
3990;18;606;15386
3994;18;606;15382
3999;16;597;15388
3983;14;602;15401
3992;12;608;15388
4029;13;570;15388
4042;17;543;15398
4060;12;564;15364
4095;9;550;15346
4123;12;533;15332
4147;12;518;15323
4157;16;512;15315
4169;16;514;15301
4188;14;549;15249
4202;14;567;15217
4225;15;552;15208
4231;13;563;15193
4210;18;611;15161
4219;15;608;15158
4228;14;614;15144
4242;7;612;15139
4250;9;607;15134
4216;5;636;15143
4216;6;640;15138
4223;11;627;15139
4215;11;637;15137
4218;18;627;15137
4225;18;639;15118
4237;16;630;15117
4255;16;635;15094
4259;13;628;15100
4280;14;626;15080
4272;12;609;15107
4285;13;605;15097
4302;10;607;15081
4319;10;610;15061
4325;13;611;15051
4353;13;583;15051
4346;13;600;15041
4330;12;610;15048
4349;10;609;15032
4348;13;614;15025
4321;13;653;15013
4330;17;651;15002
4308;20;651;15021
4296;17;650;15037
4292;16;644;15048
4289;17;658;15036
4292;17;669;15022
4280;14;677;15029
4280;13;662;15045
4260;16;676;15048
4224;18;701;15057
4186;16;738;15060
4159;12;742;15087
4130;14;756;15100
4110;16;759;15115
4101;16;771;15112
4110;14;734;15142
4095;13;722;15170
4069;14;720;15197
4070;14;699;15217
4067;14;681;15238
4074;15;650;15261
4087;12;646;15255
4076;15;652;15257
4078;18;644;15260
4097;21;620;15262
4099;21;615;15265
4108;16;629;15247
4100;16;626;15258
4104;11;604;15281
4093;11;602;15294
4088;16;587;15309
4103;15;575;15307
4129;16;540;15315
4137;11;554;15298
4131;18;550;15301
4138;15;552;15295
4157;13;542;15288
4190;13;543;15254
4210;13;531;15246
4228;12;528;15232
4246;11;540;15203
4238;13;551;15198
4224;13;563;15200
4221;12;576;15191
4226;13;586;15175
4219;13;583;15185
4230;13;589;15168
4260;11;575;15154
4241;11;587;15161
4237;10;575;15178
4224;9;590;15177
4236;12;598;15154
4226;16;584;15174
4202;13;589;15196
4216;7;603;15174
4208;9;605;15178
4215;10;610;15165
4236;11;596;15157
4250;13;575;15162
4246;14;568;15172
4217;13;589;15181
4221;12;576;15191
4221;12;577;15190
4212;14;586;15188
4203;13;585;15199
4207;13;584;15196
4194;11;588;15207
4205;14;578;15203
4220;15;567;15198
4215;14;580;15191
4198;14;600;15188
4170;16;631;15183
4150;16;628;15206
4138;19;627;15216
4135;16;620;15229
4139;14;598;15249
4135;18;625;15222
4127;17;629;15227
4122;17;629;15232
4122;13;619;15246
4120;17;638;15225
4098;18;639;15245
4074;15;654;15257
4062;13;654;15271
4043;18;654;15285
4007;15;691;15287
3990;12;674;15324
3990;16;663;15331
4006;17;640;15337
4019;13;627;15341
3998;17;624;15361
4011;18;607;15364
4031;17;597;15355
4069;14;583;15334
4073;19;590;15318
4093;15;577;15315
4097;14;603;15286
4106;15;596;15283
4096;15;596;15293
4116;15;590;15279
4125;16;571;15288
4117;21;572;15290
4135;16;557;15292
4153;12;548;15287
4179;13;559;15249
4169;9;564;15258
4181;6;563;15250
4194;10;540;15256
4217;12;538;15233
4226;11;536;15227
4240;15;531;15214
4253;19;513;15215
4293;15;496;15196
4298;12;500;15190
4314;12;510;15164
4321;17;498;15164
4343;11;488;15158
4361;10;486;15143
4360;10;477;15153
4384;12;461;15143
4390;14;470;15126
4407;16;467;15110
4451;15;469;15065
4463;10;479;15048
4480;9;476;15035
4501;14;465;15020
4515;14;469;15002
4533;12;484;14971
4544;13;487;14956
4560;12;503;14925
4578;10;501;14911
4589;7;509;14895
4584;13;517;14886
4570;12;536;14882
4581;13;538;14868
4558;11;558;14873
4542;16;567;14875
4519;16;595;14870
4522;15;597;14866
4520;12;609;14859
4525;8;594;14873
4508;11;618;14863
4470;10;658;14862
4465;9;654;14872
4441;11;664;14884
4426;8;669;14897
4394;8;682;14916
4367;9;699;14925
4355;12;670;14963
4352;16;674;14958
4351;15;677;14957
4325;15;708;14952
4303;16;728;14953
4269;18;752;14961
4264;18;740;14978
4254;15;735;14996
4247;15;730;15008
4228;17;725;15030
4223;18;717;15042
4197;14;722;15067
4172;18;725;15085
4163;14;724;15099
4137;18;719;15126
4101;15;748;15136
4109;7;729;15155
4110;11;690;15189
4110;12;669;15209
4113;10;669;15208
4120;7;651;15222
4133;10;667;15190
4136;11;663;15190
4136;13;667;15184
4158;15;643;15184
4153;16;619;15212
4143;16;630;15211
4162;16;633;15189
4184;16;626;15174
4193;13;637;15157
4199;12;646;15143
4214;14;633;15139
4231;13;651;15105
4232;11;660;15097
4223;12;672;15093
4209;15;685;15091
4215;17;697;15071
4212;16;688;15084
4220;17;715;15048
4232;21;713;15034
4212;25;728;15035
4201;24;714;15061
4191;26;724;15059
4183;20;728;15069
4192;16;723;15069
4156;20;749;15075
4129;19;754;15098
4119;23;741;15117
4107;14;734;15145
4087;16;748;15149
4075;18;737;15170
4078;19;708;15195
4103;18;677;15202
4117;18;651;15214
4151;17;630;15202
4184;17;624;15175
4180;19;634;15167
4193;16;616;15175
4195;23;636;15146
4205;18;637;15140
4210;18;614;15158
4228;16;616;15140
4219;14;623;15144
4238;15;636;15111
4241;13;649;15097
4239;13;676;15072
4236;13;678;15073
4227;17;674;15082
4196;13;701;15090
4188;15;701;15096
4183;18;698;15101
4179;19;698;15104
4165;24;712;15099
4185;23;682;15110
4178;24;697;15101
4204;22;683;15091
4175;20;710;15095
4114;21;760;15105
4076;18;761;15145
4036;12;784;15168
4011;11;800;15178
3980;17;826;15177
3969;19;814;15198
3965;13;802;15220
3929;17;789;15265
3892;17;812;15279
3881;22;790;15307
3864;22;761;15353
3837;18;749;15396
3818;11;745;15426
3813;12;744;15431
3821;12;716;15451
3821;10;721;15448
3823;16;705;15456
3846;11;678;15465
3856;15;661;15468
3856;13;646;15485
3851;12;649;15488
3859;13;633;15495
3886;14;601;15499
3911;12;586;15491
3958;12;555;15475
3955;15;566;15464
3987;16;537;15460
4015;15;500;15470
4033;15;509;15443
4068;13;508;15411
4119;13;509;15359
4135;10;524;15331
4144;10;527;15319
4163;7;521;15309
4192;5;525;15278
4222;5;507;15266
4247;7;494;15252
4297;9;484;15210
4324;12;491;15173
4355;12;486;15147
4394;12;486;15108
4414;15;481;15090
4448;13;465;15074
4472;12;487;15029
4471;14;499;15016
4481;14;491;15014
4483;15;506;14996
4501;16;499;14984
4528;14;505;14953
4553;13;492;14942
4581;11;478;14930
4565;10;505;14920
4577;10;497;14916
4583;13;509;14895
4610;11;501;14878
4640;11;508;14841
4633;10;535;14822
4615;9;551;14825
4621;9;542;14828
4631;6;535;14828
4659;7;523;14811
4643;5;546;14806
4631;7;560;14802
4612;13;577;14798
4629;15;584;14772
4625;18;604;14753
4627;17;635;14721
4621;11;633;14735
4587;10;677;14726
4579;10;655;14756
4533;11;672;14784
4485;11;698;14806
4448;12;689;14851
4427;12;694;14867
4397;10;716;14877
4376;8;719;14897
4364;9;709;14918
4326;10;727;14937
4291;10;739;14960
4273;9;729;14989
4265;9;711;15015
4270;10;702;15018
4241;7;717;15035
4222;10;706;15062
4189;14;709;15088
4188;8;697;15107
4187;9;676;15128
4169;10;693;15128
4179;16;690;15115
4154;23;713;15110
4151;17;716;15116
4118;13;742;15127
4098;17;729;15156
4096;17;738;15149
4090;19;720;15171
4079;18;729;15174
4043;18;736;15203
4002;12;749;15237
3968;12;762;15258
3957;13;780;15250
3931;13;774;15282
3930;15;753;15302
3899;15;761;15325
3891;22;772;15315
3896;27;766;15311
3888;26;763;15323
3852;25;777;15346
3826;19;785;15370
3815;16;797;15372
3804;22;781;15393
3805;21;759;15415
3787;18;760;15435
3785;16;746;15453
3772;18;748;15462
3765;17;754;15464
3751;14;749;15486
3738;14;735;15513
3715;17;732;15536
3713;14;712;15561
3705;14;695;15586
3715;10;684;15591
